%YAML 1.1
%TAG !u! tag:unity3d.com,2011:
--- !u!1001 &2069385316492128657
PrefabInstance:
  m_ObjectHideFlags: 0
  serializedVersion: 2
  m_Modification:
    m_TransformParent: {fileID: 0}
    m_Modifications:
    - target: {fileID: 1024183141, guid: b571bbc6b18ed824eae802d21ad44625, type: 3}
      propertyPath: m_Name
      value: Enemy1 (5)
      objectReference: {fileID: 0}
    - target: {fileID: 1024183151, guid: b571bbc6b18ed824eae802d21ad44625, type: 3}
      propertyPath: m_LocalPosition.x
      value: 382.79993
      objectReference: {fileID: 0}
    - target: {fileID: 1024183151, guid: b571bbc6b18ed824eae802d21ad44625, type: 3}
      propertyPath: m_LocalPosition.y
      value: -23.77771
      objectReference: {fileID: 0}
    - target: {fileID: 1024183151, guid: b571bbc6b18ed824eae802d21ad44625, type: 3}
      propertyPath: m_LocalPosition.z
      value: 0
      objectReference: {fileID: 0}
    - target: {fileID: 1024183151, guid: b571bbc6b18ed824eae802d21ad44625, type: 3}
      propertyPath: m_LocalRotation.x
      value: -0
      objectReference: {fileID: 0}
    - target: {fileID: 1024183151, guid: b571bbc6b18ed824eae802d21ad44625, type: 3}
      propertyPath: m_LocalRotation.y
      value: -0
      objectReference: {fileID: 0}
    - target: {fileID: 1024183151, guid: b571bbc6b18ed824eae802d21ad44625, type: 3}
      propertyPath: m_LocalRotation.z
      value: -0
      objectReference: {fileID: 0}
    - target: {fileID: 1024183151, guid: b571bbc6b18ed824eae802d21ad44625, type: 3}
      propertyPath: m_LocalRotation.w
      value: 1
      objectReference: {fileID: 0}
    - target: {fileID: 1024183151, guid: b571bbc6b18ed824eae802d21ad44625, type: 3}
      propertyPath: m_RootOrder
      value: 0
      objectReference: {fileID: 0}
    - target: {fileID: 1024183151, guid: b571bbc6b18ed824eae802d21ad44625, type: 3}
      propertyPath: m_LocalEulerAnglesHint.x
      value: 0
      objectReference: {fileID: 0}
    - target: {fileID: 1024183151, guid: b571bbc6b18ed824eae802d21ad44625, type: 3}
      propertyPath: m_LocalEulerAnglesHint.y
      value: 0
      objectReference: {fileID: 0}
    - target: {fileID: 1024183151, guid: b571bbc6b18ed824eae802d21ad44625, type: 3}
      propertyPath: m_LocalEulerAnglesHint.z
      value: 0
      objectReference: {fileID: 0}
    - target: {fileID: 1024183151, guid: b571bbc6b18ed824eae802d21ad44625, type: 3}
      propertyPath: m_LocalScale.x
      value: 1.25
      objectReference: {fileID: 0}
    - target: {fileID: 1024183151, guid: b571bbc6b18ed824eae802d21ad44625, type: 3}
      propertyPath: m_LocalScale.y
      value: 1.25
      objectReference: {fileID: 0}
    m_RemovedComponents: []
  m_SourcePrefab: {fileID: 100100000, guid: b571bbc6b18ed824eae802d21ad44625, type: 3}
