%YAML 1.1
%TAG !u! tag:unity3d.com,2011:
--- !u!1 &462832735
GameObject:
  m_ObjectHideFlags: 0
  m_CorrespondingSourceObject: {fileID: 0}
  m_PrefabInstance: {fileID: 0}
  m_PrefabAsset: {fileID: 0}
  serializedVersion: 6
  m_Component:
  - component: {fileID: 462832736}
  - component: {fileID: 462832737}
  m_Layer: 21
  m_Name: New Sprite
  m_TagString: Untagged
  m_Icon: {fileID: 0}
  m_NavMeshLayer: 0
  m_StaticEditorFlags: 0
  m_IsActive: 1
--- !u!4 &462832736
Transform:
  m_ObjectHideFlags: 0
  m_CorrespondingSourceObject: {fileID: 0}
  m_PrefabInstance: {fileID: 0}
  m_PrefabAsset: {fileID: 0}
  m_GameObject: {fileID: 462832735}
  m_LocalRotation: {x: 0, y: 0, z: 0, w: 1}
  m_LocalPosition: {x: 0.034, y: 0.427, z: 0}
  m_LocalScale: {x: 1.6, y: 2.5, z: 1}
  m_Children: []
  m_Father: {fileID: 4579585944720602000}
  m_RootOrder: 0
  m_LocalEulerAnglesHint: {x: 0, y: 0, z: 0}
--- !u!212 &462832737
SpriteRenderer:
  m_ObjectHideFlags: 0
  m_CorrespondingSourceObject: {fileID: 0}
  m_PrefabInstance: {fileID: 0}
  m_PrefabAsset: {fileID: 0}
  m_GameObject: {fileID: 462832735}
  m_Enabled: 1
  m_CastShadows: 0
  m_ReceiveShadows: 0
  m_DynamicOccludee: 1
  m_MotionVectors: 1
  m_LightProbeUsage: 1
  m_ReflectionProbeUsage: 1
  m_RenderingLayerMask: 1
  m_RendererPriority: 0
  m_Materials:
  - {fileID: 2100000, guid: 271363f3e12f4b445aa366a1a9c11ace, type: 2}
  m_StaticBatchInfo:
    firstSubMesh: 0
    subMeshCount: 0
  m_StaticBatchRoot: {fileID: 0}
  m_ProbeAnchor: {fileID: 0}
  m_LightProbeVolumeOverride: {fileID: 0}
  m_ScaleInLightmap: 1
  m_PreserveUVs: 0
  m_IgnoreNormalsForChartDetection: 0
  m_ImportantGI: 0
  m_StitchLightmapSeams: 0
  m_SelectedEditorRenderState: 0
  m_MinimumChartSize: 4
  m_AutoUVMaxDistance: 0.5
  m_AutoUVMaxAngle: 89
  m_LightmapParameters: {fileID: 0}
  m_SortingLayerID: -630484909
  m_SortingLayer: 6
  m_SortingOrder: 5
  m_Sprite: {fileID: 10913, guid: 0000000000000000f000000000000000, type: 0}
  m_Color: {r: 0, g: 0.59607846, b: 0.4039216, a: 1}
  m_FlipX: 0
  m_FlipY: 0
  m_DrawMode: 0
  m_Size: {x: 0.2, y: 0.2}
  m_AdaptiveModeThreshold: 0.5
  m_SpriteTileMode: 0
  m_WasSpriteAssigned: 1
  m_MaskInteraction: 0
  m_SpriteSortPoint: 0
--- !u!95 &7166964399604135456
Animator:
  serializedVersion: 3
  m_ObjectHideFlags: 0
  m_CorrespondingSourceObject: {fileID: 0}
  m_PrefabInstance: {fileID: 0}
  m_PrefabAsset: {fileID: 0}
  m_GameObject: {fileID: 7730429107870570243}
  m_Enabled: 1
  m_Avatar: {fileID: 0}
  m_Controller: {fileID: 9100000, guid: abf31432643687f44b0b7ec9b3bd8623, type: 2}
  m_CullingMode: 0
  m_UpdateMode: 0
  m_ApplyRootMotion: 0
  m_LinearVelocityBlending: 0
  m_WarningMessage: 
  m_HasTransformHierarchy: 1
  m_AllowConstantClipSamplingOptimization: 1
  m_KeepAnimatorControllerStateOnDisable: 0
--- !u!1001 &7792664866589863819
PrefabInstance:
  m_ObjectHideFlags: 0
  serializedVersion: 2
  m_Modification:
    m_TransformParent: {fileID: 0}
    m_Modifications:
    - target: {fileID: 535113859354491016, guid: 96ab2128e93ee1a4988eb583a0442acc,
        type: 3}
      propertyPath: m_Name
      value: Flying Enemy (1) Variant (4) Variant
      objectReference: {fileID: 0}
    - target: {fileID: 6028330126581701659, guid: 96ab2128e93ee1a4988eb583a0442acc,
        type: 3}
      propertyPath: m_LocalPosition.x
      value: 589.44
      objectReference: {fileID: 0}
    - target: {fileID: 6028330126581701659, guid: 96ab2128e93ee1a4988eb583a0442acc,
        type: 3}
      propertyPath: m_LocalPosition.y
      value: 21.6
      objectReference: {fileID: 0}
    - target: {fileID: 6028330126581701659, guid: 96ab2128e93ee1a4988eb583a0442acc,
        type: 3}
      propertyPath: m_LocalPosition.z
      value: 0
      objectReference: {fileID: 0}
    - target: {fileID: 6028330126581701659, guid: 96ab2128e93ee1a4988eb583a0442acc,
        type: 3}
      propertyPath: m_LocalRotation.x
      value: 0
      objectReference: {fileID: 0}
    - target: {fileID: 6028330126581701659, guid: 96ab2128e93ee1a4988eb583a0442acc,
        type: 3}
      propertyPath: m_LocalRotation.y
      value: 0
      objectReference: {fileID: 0}
    - target: {fileID: 6028330126581701659, guid: 96ab2128e93ee1a4988eb583a0442acc,
        type: 3}
      propertyPath: m_LocalRotation.z
      value: 0
      objectReference: {fileID: 0}
    - target: {fileID: 6028330126581701659, guid: 96ab2128e93ee1a4988eb583a0442acc,
        type: 3}
      propertyPath: m_LocalRotation.w
      value: 1
      objectReference: {fileID: 0}
    - target: {fileID: 6028330126581701659, guid: 96ab2128e93ee1a4988eb583a0442acc,
        type: 3}
      propertyPath: m_RootOrder
      value: 0
      objectReference: {fileID: 0}
    - target: {fileID: 6028330126581701659, guid: 96ab2128e93ee1a4988eb583a0442acc,
        type: 3}
      propertyPath: m_LocalEulerAnglesHint.x
      value: 0
      objectReference: {fileID: 0}
    - target: {fileID: 6028330126581701659, guid: 96ab2128e93ee1a4988eb583a0442acc,
        type: 3}
      propertyPath: m_LocalEulerAnglesHint.y
      value: 0
      objectReference: {fileID: 0}
    - target: {fileID: 6028330126581701659, guid: 96ab2128e93ee1a4988eb583a0442acc,
        type: 3}
      propertyPath: m_LocalEulerAnglesHint.z
      value: 0
      objectReference: {fileID: 0}
    - target: {fileID: 2818426272584154203, guid: 96ab2128e93ee1a4988eb583a0442acc,
        type: 3}
      propertyPath: m_Sprite
      value: 
      objectReference: {fileID: 21300000, guid: f5403b45ad0f588498e90143daf6e4ef,
        type: 3}
    - target: {fileID: 2818426272584154203, guid: 96ab2128e93ee1a4988eb583a0442acc,
        type: 3}
      propertyPath: m_Color.r
      value: 0.3962264
      objectReference: {fileID: 0}
    - target: {fileID: 2818426272584154203, guid: 96ab2128e93ee1a4988eb583a0442acc,
        type: 3}
      propertyPath: m_Color.g
      value: 0.23736204
      objectReference: {fileID: 0}
    - target: {fileID: 2818426272584154203, guid: 96ab2128e93ee1a4988eb583a0442acc,
        type: 3}
      propertyPath: m_Color.b
      value: 0.26916528
      objectReference: {fileID: 0}
    - target: {fileID: 4015375320253021339, guid: 96ab2128e93ee1a4988eb583a0442acc,
        type: 3}
      propertyPath: m_Offset.x
      value: -0.1
      objectReference: {fileID: 0}
    - target: {fileID: 4015375320253021339, guid: 96ab2128e93ee1a4988eb583a0442acc,
        type: 3}
      propertyPath: m_Offset.y
      value: 0.3470539
      objectReference: {fileID: 0}
    - target: {fileID: 4015375320253021339, guid: 96ab2128e93ee1a4988eb583a0442acc,
        type: 3}
      propertyPath: m_SpriteTilingProperty.oldSize.x
      value: 2.5333333
      objectReference: {fileID: 0}
    - target: {fileID: 4015375320253021339, guid: 96ab2128e93ee1a4988eb583a0442acc,
        type: 3}
      propertyPath: m_SpriteTilingProperty.oldSize.y
      value: 2.8666666
      objectReference: {fileID: 0}
    - target: {fileID: 4015375320253021339, guid: 96ab2128e93ee1a4988eb583a0442acc,
        type: 3}
      propertyPath: m_Size.x
      value: 2.21
      objectReference: {fileID: 0}
    - target: {fileID: 4015375320253021339, guid: 96ab2128e93ee1a4988eb583a0442acc,
        type: 3}
      propertyPath: m_Size.y
      value: 1.2951951
      objectReference: {fileID: 0}
    m_RemovedComponents: []
  m_SourcePrefab: {fileID: 100100000, guid: 96ab2128e93ee1a4988eb583a0442acc, type: 3}
--- !u!1 &7730429107870570243 stripped
GameObject:
  m_CorrespondingSourceObject: {fileID: 535113859354491016, guid: 96ab2128e93ee1a4988eb583a0442acc,
    type: 3}
  m_PrefabInstance: {fileID: 7792664866589863819}
  m_PrefabAsset: {fileID: 0}
--- !u!4 &4579585944720602000 stripped
Transform:
  m_CorrespondingSourceObject: {fileID: 6028330126581701659, guid: 96ab2128e93ee1a4988eb583a0442acc,
    type: 3}
  m_PrefabInstance: {fileID: 7792664866589863819}
  m_PrefabAsset: {fileID: 0}
