%YAML 1.1
%TAG !u! tag:unity3d.com,2011:
--- !u!1 &8935126983382226720
GameObject:
  m_ObjectHideFlags: 0
  m_CorrespondingSourceObject: {fileID: 0}
  m_PrefabInstance: {fileID: 0}
  m_PrefabAsset: {fileID: 0}
  serializedVersion: 6
  m_Component:
  - component: {fileID: 1374819187}
  - component: {fileID: 5715221507755394041}
  - component: {fileID: 4755910405570233447}
  - component: {fileID: 2909305847649571256}
  - component: {fileID: 6432665326799087227}
  - component: {fileID: 2679117887994721738}
  m_Layer: 12
  m_Name: Fg_Pre Gerador
  m_TagString: Ground
  m_Icon: {fileID: 0}
  m_NavMeshLayer: 0
  m_StaticEditorFlags: 0
  m_IsActive: 1
--- !u!4 &1374819187
Transform:
  m_ObjectHideFlags: 0
  m_CorrespondingSourceObject: {fileID: 0}
  m_PrefabInstance: {fileID: 0}
  m_PrefabAsset: {fileID: 0}
  m_GameObject: {fileID: 8935126983382226720}
  m_LocalRotation: {x: -0, y: -0, z: -0, w: 1}
  m_LocalPosition: {x: 0, y: 0, z: 0}
  m_LocalScale: {x: 1, y: 1, z: 1}
  m_Children: []
  m_Father: {fileID: 0}
  m_RootOrder: 0
  m_LocalEulerAnglesHint: {x: 0, y: 0, z: 0}
--- !u!1839735485 &5715221507755394041
Tilemap:
  m_ObjectHideFlags: 0
  m_CorrespondingSourceObject: {fileID: 0}
  m_PrefabInstance: {fileID: 0}
  m_PrefabAsset: {fileID: 0}
  m_GameObject: {fileID: 8935126983382226720}
  m_Enabled: 1
  m_Tiles:
  - first: {x: 405, y: 35, z: 0}
    second:
      m_TileIndex: 0
      m_TileSpriteIndex: 8
      m_TileMatrixIndex: 4
      m_TileColorIndex: 0
      m_ObjectToInstantiate: {fileID: 0}
      m_TileFlags: 2
      m_ColliderType: 1
  - first: {x: 406, y: 35, z: 0}
    second:
      m_TileIndex: 0
      m_TileSpriteIndex: 4
      m_TileMatrixIndex: 4
      m_TileColorIndex: 0
      m_ObjectToInstantiate: {fileID: 0}
      m_TileFlags: 2
      m_ColliderType: 1
  - first: {x: 407, y: 35, z: 0}
    second:
      m_TileIndex: 0
      m_TileSpriteIndex: 4
      m_TileMatrixIndex: 4
      m_TileColorIndex: 0
      m_ObjectToInstantiate: {fileID: 0}
      m_TileFlags: 2
      m_ColliderType: 1
  - first: {x: 408, y: 35, z: 0}
    second:
      m_TileIndex: 0
      m_TileSpriteIndex: 4
      m_TileMatrixIndex: 4
      m_TileColorIndex: 0
      m_ObjectToInstantiate: {fileID: 0}
      m_TileFlags: 2
      m_ColliderType: 1
  - first: {x: 409, y: 35, z: 0}
    second:
      m_TileIndex: 0
      m_TileSpriteIndex: 4
      m_TileMatrixIndex: 4
      m_TileColorIndex: 0
      m_ObjectToInstantiate: {fileID: 0}
      m_TileFlags: 2
      m_ColliderType: 1
  - first: {x: 410, y: 35, z: 0}
    second:
      m_TileIndex: 0
      m_TileSpriteIndex: 4
      m_TileMatrixIndex: 4
      m_TileColorIndex: 0
      m_ObjectToInstantiate: {fileID: 0}
      m_TileFlags: 2
      m_ColliderType: 1
  - first: {x: 411, y: 35, z: 0}
    second:
      m_TileIndex: 0
      m_TileSpriteIndex: 4
      m_TileMatrixIndex: 4
      m_TileColorIndex: 0
      m_ObjectToInstantiate: {fileID: 0}
      m_TileFlags: 2
      m_ColliderType: 1
  - first: {x: 412, y: 35, z: 0}
    second:
      m_TileIndex: 0
      m_TileSpriteIndex: 4
      m_TileMatrixIndex: 4
      m_TileColorIndex: 0
      m_ObjectToInstantiate: {fileID: 0}
      m_TileFlags: 2
      m_ColliderType: 1
  - first: {x: 413, y: 35, z: 0}
    second:
      m_TileIndex: 0
      m_TileSpriteIndex: 4
      m_TileMatrixIndex: 4
      m_TileColorIndex: 0
      m_ObjectToInstantiate: {fileID: 0}
      m_TileFlags: 2
      m_ColliderType: 1
  - first: {x: 414, y: 35, z: 0}
    second:
      m_TileIndex: 0
      m_TileSpriteIndex: 8
      m_TileMatrixIndex: 2
      m_TileColorIndex: 0
      m_ObjectToInstantiate: {fileID: 0}
      m_TileFlags: 2
      m_ColliderType: 1
  - first: {x: 405, y: 36, z: 0}
    second:
      m_TileIndex: 0
      m_TileSpriteIndex: 7
      m_TileMatrixIndex: 4
      m_TileColorIndex: 0
      m_ObjectToInstantiate: {fileID: 0}
      m_TileFlags: 2
      m_ColliderType: 1
  - first: {x: 406, y: 36, z: 0}
    second:
      m_TileIndex: 0
      m_TileSpriteIndex: 5
      m_TileMatrixIndex: 4
      m_TileColorIndex: 0
      m_ObjectToInstantiate: {fileID: 0}
      m_TileFlags: 2
      m_ColliderType: 1
  - first: {x: 407, y: 36, z: 0}
    second:
      m_TileIndex: 0
      m_TileSpriteIndex: 5
      m_TileMatrixIndex: 4
      m_TileColorIndex: 0
      m_ObjectToInstantiate: {fileID: 0}
      m_TileFlags: 2
      m_ColliderType: 1
  - first: {x: 408, y: 36, z: 0}
    second:
      m_TileIndex: 0
      m_TileSpriteIndex: 5
      m_TileMatrixIndex: 4
      m_TileColorIndex: 0
      m_ObjectToInstantiate: {fileID: 0}
      m_TileFlags: 2
      m_ColliderType: 1
  - first: {x: 409, y: 36, z: 0}
    second:
      m_TileIndex: 0
      m_TileSpriteIndex: 5
      m_TileMatrixIndex: 4
      m_TileColorIndex: 0
      m_ObjectToInstantiate: {fileID: 0}
      m_TileFlags: 2
      m_ColliderType: 1
  - first: {x: 410, y: 36, z: 0}
    second:
      m_TileIndex: 0
      m_TileSpriteIndex: 5
      m_TileMatrixIndex: 4
      m_TileColorIndex: 0
      m_ObjectToInstantiate: {fileID: 0}
      m_TileFlags: 2
      m_ColliderType: 1
  - first: {x: 411, y: 36, z: 0}
    second:
      m_TileIndex: 0
      m_TileSpriteIndex: 5
      m_TileMatrixIndex: 4
      m_TileColorIndex: 0
      m_ObjectToInstantiate: {fileID: 0}
      m_TileFlags: 2
      m_ColliderType: 1
  - first: {x: 412, y: 36, z: 0}
    second:
      m_TileIndex: 0
      m_TileSpriteIndex: 5
      m_TileMatrixIndex: 4
      m_TileColorIndex: 0
      m_ObjectToInstantiate: {fileID: 0}
      m_TileFlags: 2
      m_ColliderType: 1
  - first: {x: 413, y: 36, z: 0}
    second:
      m_TileIndex: 0
      m_TileSpriteIndex: 5
      m_TileMatrixIndex: 4
      m_TileColorIndex: 0
      m_ObjectToInstantiate: {fileID: 0}
      m_TileFlags: 2
      m_ColliderType: 1
  - first: {x: 414, y: 36, z: 0}
    second:
      m_TileIndex: 0
      m_TileSpriteIndex: 3
      m_TileMatrixIndex: 4
      m_TileColorIndex: 0
      m_ObjectToInstantiate: {fileID: 0}
      m_TileFlags: 2
      m_ColliderType: 1
  - first: {x: 405, y: 37, z: 0}
    second:
      m_TileIndex: 0
      m_TileSpriteIndex: 7
      m_TileMatrixIndex: 4
      m_TileColorIndex: 0
      m_ObjectToInstantiate: {fileID: 0}
      m_TileFlags: 2
      m_ColliderType: 1
  - first: {x: 406, y: 37, z: 0}
    second:
      m_TileIndex: 0
      m_TileSpriteIndex: 5
      m_TileMatrixIndex: 4
      m_TileColorIndex: 0
      m_ObjectToInstantiate: {fileID: 0}
      m_TileFlags: 2
      m_ColliderType: 1
  - first: {x: 407, y: 37, z: 0}
    second:
      m_TileIndex: 0
      m_TileSpriteIndex: 5
      m_TileMatrixIndex: 4
      m_TileColorIndex: 0
      m_ObjectToInstantiate: {fileID: 0}
      m_TileFlags: 2
      m_ColliderType: 1
  - first: {x: 408, y: 37, z: 0}
    second:
      m_TileIndex: 0
      m_TileSpriteIndex: 5
      m_TileMatrixIndex: 4
      m_TileColorIndex: 0
      m_ObjectToInstantiate: {fileID: 0}
      m_TileFlags: 2
      m_ColliderType: 1
  - first: {x: 409, y: 37, z: 0}
    second:
      m_TileIndex: 0
      m_TileSpriteIndex: 5
      m_TileMatrixIndex: 4
      m_TileColorIndex: 0
      m_ObjectToInstantiate: {fileID: 0}
      m_TileFlags: 2
      m_ColliderType: 1
  - first: {x: 410, y: 37, z: 0}
    second:
      m_TileIndex: 0
      m_TileSpriteIndex: 5
      m_TileMatrixIndex: 4
      m_TileColorIndex: 0
      m_ObjectToInstantiate: {fileID: 0}
      m_TileFlags: 2
      m_ColliderType: 1
  - first: {x: 411, y: 37, z: 0}
    second:
      m_TileIndex: 0
      m_TileSpriteIndex: 5
      m_TileMatrixIndex: 4
      m_TileColorIndex: 0
      m_ObjectToInstantiate: {fileID: 0}
      m_TileFlags: 2
      m_ColliderType: 1
  - first: {x: 412, y: 37, z: 0}
    second:
      m_TileIndex: 0
      m_TileSpriteIndex: 5
      m_TileMatrixIndex: 4
      m_TileColorIndex: 0
      m_ObjectToInstantiate: {fileID: 0}
      m_TileFlags: 2
      m_ColliderType: 1
  - first: {x: 413, y: 37, z: 0}
    second:
      m_TileIndex: 0
      m_TileSpriteIndex: 5
      m_TileMatrixIndex: 4
      m_TileColorIndex: 0
      m_ObjectToInstantiate: {fileID: 0}
      m_TileFlags: 2
      m_ColliderType: 1
  - first: {x: 414, y: 37, z: 0}
    second:
      m_TileIndex: 0
      m_TileSpriteIndex: 3
      m_TileMatrixIndex: 4
      m_TileColorIndex: 0
      m_ObjectToInstantiate: {fileID: 0}
      m_TileFlags: 2
      m_ColliderType: 1
  - first: {x: 405, y: 38, z: 0}
    second:
      m_TileIndex: 0
      m_TileSpriteIndex: 7
      m_TileMatrixIndex: 4
      m_TileColorIndex: 0
      m_ObjectToInstantiate: {fileID: 0}
      m_TileFlags: 2
      m_ColliderType: 1
  - first: {x: 406, y: 38, z: 0}
    second:
      m_TileIndex: 0
      m_TileSpriteIndex: 5
      m_TileMatrixIndex: 4
      m_TileColorIndex: 0
      m_ObjectToInstantiate: {fileID: 0}
      m_TileFlags: 2
      m_ColliderType: 1
  - first: {x: 407, y: 38, z: 0}
    second:
      m_TileIndex: 0
      m_TileSpriteIndex: 5
      m_TileMatrixIndex: 4
      m_TileColorIndex: 0
      m_ObjectToInstantiate: {fileID: 0}
      m_TileFlags: 2
      m_ColliderType: 1
  - first: {x: 408, y: 38, z: 0}
    second:
      m_TileIndex: 0
      m_TileSpriteIndex: 5
      m_TileMatrixIndex: 4
      m_TileColorIndex: 0
      m_ObjectToInstantiate: {fileID: 0}
      m_TileFlags: 2
      m_ColliderType: 1
  - first: {x: 409, y: 38, z: 0}
    second:
      m_TileIndex: 0
      m_TileSpriteIndex: 5
      m_TileMatrixIndex: 4
      m_TileColorIndex: 0
      m_ObjectToInstantiate: {fileID: 0}
      m_TileFlags: 2
      m_ColliderType: 1
  - first: {x: 410, y: 38, z: 0}
    second:
      m_TileIndex: 0
      m_TileSpriteIndex: 5
      m_TileMatrixIndex: 4
      m_TileColorIndex: 0
      m_ObjectToInstantiate: {fileID: 0}
      m_TileFlags: 2
      m_ColliderType: 1
  - first: {x: 411, y: 38, z: 0}
    second:
      m_TileIndex: 0
      m_TileSpriteIndex: 5
      m_TileMatrixIndex: 4
      m_TileColorIndex: 0
      m_ObjectToInstantiate: {fileID: 0}
      m_TileFlags: 2
      m_ColliderType: 1
  - first: {x: 412, y: 38, z: 0}
    second:
      m_TileIndex: 0
      m_TileSpriteIndex: 5
      m_TileMatrixIndex: 4
      m_TileColorIndex: 0
      m_ObjectToInstantiate: {fileID: 0}
      m_TileFlags: 2
      m_ColliderType: 1
  - first: {x: 413, y: 38, z: 0}
    second:
      m_TileIndex: 0
      m_TileSpriteIndex: 5
      m_TileMatrixIndex: 4
      m_TileColorIndex: 0
      m_ObjectToInstantiate: {fileID: 0}
      m_TileFlags: 2
      m_ColliderType: 1
  - first: {x: 414, y: 38, z: 0}
    second:
      m_TileIndex: 0
      m_TileSpriteIndex: 3
      m_TileMatrixIndex: 4
      m_TileColorIndex: 0
      m_ObjectToInstantiate: {fileID: 0}
      m_TileFlags: 2
      m_ColliderType: 1
  - first: {x: 405, y: 39, z: 0}
    second:
      m_TileIndex: 0
      m_TileSpriteIndex: 7
      m_TileMatrixIndex: 4
      m_TileColorIndex: 0
      m_ObjectToInstantiate: {fileID: 0}
      m_TileFlags: 2
      m_ColliderType: 1
  - first: {x: 406, y: 39, z: 0}
    second:
      m_TileIndex: 0
      m_TileSpriteIndex: 5
      m_TileMatrixIndex: 4
      m_TileColorIndex: 0
      m_ObjectToInstantiate: {fileID: 0}
      m_TileFlags: 2
      m_ColliderType: 1
  - first: {x: 407, y: 39, z: 0}
    second:
      m_TileIndex: 0
      m_TileSpriteIndex: 5
      m_TileMatrixIndex: 4
      m_TileColorIndex: 0
      m_ObjectToInstantiate: {fileID: 0}
      m_TileFlags: 2
      m_ColliderType: 1
  - first: {x: 408, y: 39, z: 0}
    second:
      m_TileIndex: 0
      m_TileSpriteIndex: 5
      m_TileMatrixIndex: 4
      m_TileColorIndex: 0
      m_ObjectToInstantiate: {fileID: 0}
      m_TileFlags: 2
      m_ColliderType: 1
  - first: {x: 409, y: 39, z: 0}
    second:
      m_TileIndex: 0
      m_TileSpriteIndex: 5
      m_TileMatrixIndex: 4
      m_TileColorIndex: 0
      m_ObjectToInstantiate: {fileID: 0}
      m_TileFlags: 2
      m_ColliderType: 1
  - first: {x: 410, y: 39, z: 0}
    second:
      m_TileIndex: 0
      m_TileSpriteIndex: 5
      m_TileMatrixIndex: 4
      m_TileColorIndex: 0
      m_ObjectToInstantiate: {fileID: 0}
      m_TileFlags: 2
      m_ColliderType: 1
  - first: {x: 411, y: 39, z: 0}
    second:
      m_TileIndex: 0
      m_TileSpriteIndex: 5
      m_TileMatrixIndex: 4
      m_TileColorIndex: 0
      m_ObjectToInstantiate: {fileID: 0}
      m_TileFlags: 2
      m_ColliderType: 1
  - first: {x: 412, y: 39, z: 0}
    second:
      m_TileIndex: 0
      m_TileSpriteIndex: 5
      m_TileMatrixIndex: 4
      m_TileColorIndex: 0
      m_ObjectToInstantiate: {fileID: 0}
      m_TileFlags: 2
      m_ColliderType: 1
  - first: {x: 413, y: 39, z: 0}
    second:
      m_TileIndex: 0
      m_TileSpriteIndex: 5
      m_TileMatrixIndex: 4
      m_TileColorIndex: 0
      m_ObjectToInstantiate: {fileID: 0}
      m_TileFlags: 2
      m_ColliderType: 1
  - first: {x: 414, y: 39, z: 0}
    second:
      m_TileIndex: 0
      m_TileSpriteIndex: 3
      m_TileMatrixIndex: 4
      m_TileColorIndex: 0
      m_ObjectToInstantiate: {fileID: 0}
      m_TileFlags: 2
      m_ColliderType: 1
  - first: {x: 405, y: 40, z: 0}
    second:
      m_TileIndex: 0
      m_TileSpriteIndex: 7
      m_TileMatrixIndex: 4
      m_TileColorIndex: 0
      m_ObjectToInstantiate: {fileID: 0}
      m_TileFlags: 2
      m_ColliderType: 1
  - first: {x: 406, y: 40, z: 0}
    second:
      m_TileIndex: 0
      m_TileSpriteIndex: 5
      m_TileMatrixIndex: 4
      m_TileColorIndex: 0
      m_ObjectToInstantiate: {fileID: 0}
      m_TileFlags: 2
      m_ColliderType: 1
  - first: {x: 407, y: 40, z: 0}
    second:
      m_TileIndex: 0
      m_TileSpriteIndex: 5
      m_TileMatrixIndex: 4
      m_TileColorIndex: 0
      m_ObjectToInstantiate: {fileID: 0}
      m_TileFlags: 2
      m_ColliderType: 1
  - first: {x: 408, y: 40, z: 0}
    second:
      m_TileIndex: 0
      m_TileSpriteIndex: 5
      m_TileMatrixIndex: 4
      m_TileColorIndex: 0
      m_ObjectToInstantiate: {fileID: 0}
      m_TileFlags: 2
      m_ColliderType: 1
  - first: {x: 409, y: 40, z: 0}
    second:
      m_TileIndex: 0
      m_TileSpriteIndex: 5
      m_TileMatrixIndex: 4
      m_TileColorIndex: 0
      m_ObjectToInstantiate: {fileID: 0}
      m_TileFlags: 2
      m_ColliderType: 1
  - first: {x: 410, y: 40, z: 0}
    second:
      m_TileIndex: 0
      m_TileSpriteIndex: 5
      m_TileMatrixIndex: 4
      m_TileColorIndex: 0
      m_ObjectToInstantiate: {fileID: 0}
      m_TileFlags: 2
      m_ColliderType: 1
  - first: {x: 411, y: 40, z: 0}
    second:
      m_TileIndex: 0
      m_TileSpriteIndex: 5
      m_TileMatrixIndex: 4
      m_TileColorIndex: 0
      m_ObjectToInstantiate: {fileID: 0}
      m_TileFlags: 2
      m_ColliderType: 1
  - first: {x: 412, y: 40, z: 0}
    second:
      m_TileIndex: 0
      m_TileSpriteIndex: 5
      m_TileMatrixIndex: 4
      m_TileColorIndex: 0
      m_ObjectToInstantiate: {fileID: 0}
      m_TileFlags: 2
      m_ColliderType: 1
  - first: {x: 413, y: 40, z: 0}
    second:
      m_TileIndex: 0
      m_TileSpriteIndex: 5
      m_TileMatrixIndex: 4
      m_TileColorIndex: 0
      m_ObjectToInstantiate: {fileID: 0}
      m_TileFlags: 2
      m_ColliderType: 1
  - first: {x: 414, y: 40, z: 0}
    second:
      m_TileIndex: 0
      m_TileSpriteIndex: 3
      m_TileMatrixIndex: 4
      m_TileColorIndex: 0
      m_ObjectToInstantiate: {fileID: 0}
      m_TileFlags: 2
      m_ColliderType: 1
  - first: {x: 405, y: 41, z: 0}
    second:
      m_TileIndex: 0
      m_TileSpriteIndex: 7
      m_TileMatrixIndex: 4
      m_TileColorIndex: 0
      m_ObjectToInstantiate: {fileID: 0}
      m_TileFlags: 2
      m_ColliderType: 1
  - first: {x: 406, y: 41, z: 0}
    second:
      m_TileIndex: 0
      m_TileSpriteIndex: 5
      m_TileMatrixIndex: 4
      m_TileColorIndex: 0
      m_ObjectToInstantiate: {fileID: 0}
      m_TileFlags: 2
      m_ColliderType: 1
  - first: {x: 407, y: 41, z: 0}
    second:
      m_TileIndex: 0
      m_TileSpriteIndex: 5
      m_TileMatrixIndex: 4
      m_TileColorIndex: 0
      m_ObjectToInstantiate: {fileID: 0}
      m_TileFlags: 2
      m_ColliderType: 1
  - first: {x: 408, y: 41, z: 0}
    second:
      m_TileIndex: 0
      m_TileSpriteIndex: 5
      m_TileMatrixIndex: 4
      m_TileColorIndex: 0
      m_ObjectToInstantiate: {fileID: 0}
      m_TileFlags: 2
      m_ColliderType: 1
  - first: {x: 409, y: 41, z: 0}
    second:
      m_TileIndex: 0
      m_TileSpriteIndex: 5
      m_TileMatrixIndex: 4
      m_TileColorIndex: 0
      m_ObjectToInstantiate: {fileID: 0}
      m_TileFlags: 2
      m_ColliderType: 1
  - first: {x: 410, y: 41, z: 0}
    second:
      m_TileIndex: 0
      m_TileSpriteIndex: 5
      m_TileMatrixIndex: 4
      m_TileColorIndex: 0
      m_ObjectToInstantiate: {fileID: 0}
      m_TileFlags: 2
      m_ColliderType: 1
  - first: {x: 411, y: 41, z: 0}
    second:
      m_TileIndex: 0
      m_TileSpriteIndex: 5
      m_TileMatrixIndex: 4
      m_TileColorIndex: 0
      m_ObjectToInstantiate: {fileID: 0}
      m_TileFlags: 2
      m_ColliderType: 1
  - first: {x: 412, y: 41, z: 0}
    second:
      m_TileIndex: 0
      m_TileSpriteIndex: 5
      m_TileMatrixIndex: 4
      m_TileColorIndex: 0
      m_ObjectToInstantiate: {fileID: 0}
      m_TileFlags: 2
      m_ColliderType: 1
  - first: {x: 413, y: 41, z: 0}
    second:
      m_TileIndex: 0
      m_TileSpriteIndex: 5
      m_TileMatrixIndex: 4
      m_TileColorIndex: 0
      m_ObjectToInstantiate: {fileID: 0}
      m_TileFlags: 2
      m_ColliderType: 1
  - first: {x: 414, y: 41, z: 0}
    second:
      m_TileIndex: 0
      m_TileSpriteIndex: 3
      m_TileMatrixIndex: 4
      m_TileColorIndex: 0
      m_ObjectToInstantiate: {fileID: 0}
      m_TileFlags: 2
      m_ColliderType: 1
  - first: {x: 405, y: 42, z: 0}
    second:
      m_TileIndex: 0
      m_TileSpriteIndex: 7
      m_TileMatrixIndex: 4
      m_TileColorIndex: 0
      m_ObjectToInstantiate: {fileID: 0}
      m_TileFlags: 2
      m_ColliderType: 1
  - first: {x: 406, y: 42, z: 0}
    second:
      m_TileIndex: 0
      m_TileSpriteIndex: 5
      m_TileMatrixIndex: 4
      m_TileColorIndex: 0
      m_ObjectToInstantiate: {fileID: 0}
      m_TileFlags: 2
      m_ColliderType: 1
  - first: {x: 407, y: 42, z: 0}
    second:
      m_TileIndex: 0
      m_TileSpriteIndex: 5
      m_TileMatrixIndex: 4
      m_TileColorIndex: 0
      m_ObjectToInstantiate: {fileID: 0}
      m_TileFlags: 2
      m_ColliderType: 1
  - first: {x: 408, y: 42, z: 0}
    second:
      m_TileIndex: 0
      m_TileSpriteIndex: 5
      m_TileMatrixIndex: 4
      m_TileColorIndex: 0
      m_ObjectToInstantiate: {fileID: 0}
      m_TileFlags: 2
      m_ColliderType: 1
  - first: {x: 409, y: 42, z: 0}
    second:
      m_TileIndex: 0
      m_TileSpriteIndex: 5
      m_TileMatrixIndex: 4
      m_TileColorIndex: 0
      m_ObjectToInstantiate: {fileID: 0}
      m_TileFlags: 2
      m_ColliderType: 1
  - first: {x: 410, y: 42, z: 0}
    second:
      m_TileIndex: 0
      m_TileSpriteIndex: 5
      m_TileMatrixIndex: 4
      m_TileColorIndex: 0
      m_ObjectToInstantiate: {fileID: 0}
      m_TileFlags: 2
      m_ColliderType: 1
  - first: {x: 411, y: 42, z: 0}
    second:
      m_TileIndex: 0
      m_TileSpriteIndex: 5
      m_TileMatrixIndex: 4
      m_TileColorIndex: 0
      m_ObjectToInstantiate: {fileID: 0}
      m_TileFlags: 2
      m_ColliderType: 1
  - first: {x: 412, y: 42, z: 0}
    second:
      m_TileIndex: 0
      m_TileSpriteIndex: 5
      m_TileMatrixIndex: 4
      m_TileColorIndex: 0
      m_ObjectToInstantiate: {fileID: 0}
      m_TileFlags: 2
      m_ColliderType: 1
  - first: {x: 413, y: 42, z: 0}
    second:
      m_TileIndex: 0
      m_TileSpriteIndex: 5
      m_TileMatrixIndex: 4
      m_TileColorIndex: 0
      m_ObjectToInstantiate: {fileID: 0}
      m_TileFlags: 2
      m_ColliderType: 1
  - first: {x: 414, y: 42, z: 0}
    second:
      m_TileIndex: 0
      m_TileSpriteIndex: 3
      m_TileMatrixIndex: 4
      m_TileColorIndex: 0
      m_ObjectToInstantiate: {fileID: 0}
      m_TileFlags: 2
      m_ColliderType: 1
  - first: {x: 405, y: 43, z: 0}
    second:
      m_TileIndex: 0
      m_TileSpriteIndex: 7
      m_TileMatrixIndex: 4
      m_TileColorIndex: 0
      m_ObjectToInstantiate: {fileID: 0}
      m_TileFlags: 2
      m_ColliderType: 1
  - first: {x: 406, y: 43, z: 0}
    second:
      m_TileIndex: 0
      m_TileSpriteIndex: 5
      m_TileMatrixIndex: 4
      m_TileColorIndex: 0
      m_ObjectToInstantiate: {fileID: 0}
      m_TileFlags: 2
      m_ColliderType: 1
  - first: {x: 407, y: 43, z: 0}
    second:
      m_TileIndex: 0
      m_TileSpriteIndex: 5
      m_TileMatrixIndex: 4
      m_TileColorIndex: 0
      m_ObjectToInstantiate: {fileID: 0}
      m_TileFlags: 2
      m_ColliderType: 1
  - first: {x: 408, y: 43, z: 0}
    second:
      m_TileIndex: 0
      m_TileSpriteIndex: 5
      m_TileMatrixIndex: 4
      m_TileColorIndex: 0
      m_ObjectToInstantiate: {fileID: 0}
      m_TileFlags: 2
      m_ColliderType: 1
  - first: {x: 409, y: 43, z: 0}
    second:
      m_TileIndex: 0
      m_TileSpriteIndex: 5
      m_TileMatrixIndex: 4
      m_TileColorIndex: 0
      m_ObjectToInstantiate: {fileID: 0}
      m_TileFlags: 2
      m_ColliderType: 1
  - first: {x: 410, y: 43, z: 0}
    second:
      m_TileIndex: 0
      m_TileSpriteIndex: 5
      m_TileMatrixIndex: 4
      m_TileColorIndex: 0
      m_ObjectToInstantiate: {fileID: 0}
      m_TileFlags: 2
      m_ColliderType: 1
  - first: {x: 411, y: 43, z: 0}
    second:
      m_TileIndex: 0
      m_TileSpriteIndex: 5
      m_TileMatrixIndex: 4
      m_TileColorIndex: 0
      m_ObjectToInstantiate: {fileID: 0}
      m_TileFlags: 2
      m_ColliderType: 1
  - first: {x: 412, y: 43, z: 0}
    second:
      m_TileIndex: 0
      m_TileSpriteIndex: 5
      m_TileMatrixIndex: 4
      m_TileColorIndex: 0
      m_ObjectToInstantiate: {fileID: 0}
      m_TileFlags: 2
      m_ColliderType: 1
  - first: {x: 413, y: 43, z: 0}
    second:
      m_TileIndex: 0
      m_TileSpriteIndex: 5
      m_TileMatrixIndex: 4
      m_TileColorIndex: 0
      m_ObjectToInstantiate: {fileID: 0}
      m_TileFlags: 2
      m_ColliderType: 1
  - first: {x: 414, y: 43, z: 0}
    second:
      m_TileIndex: 0
      m_TileSpriteIndex: 5
      m_TileMatrixIndex: 4
      m_TileColorIndex: 0
      m_ObjectToInstantiate: {fileID: 0}
      m_TileFlags: 2
      m_ColliderType: 1
  - first: {x: 415, y: 43, z: 0}
    second:
      m_TileIndex: 0
      m_TileSpriteIndex: 4
      m_TileMatrixIndex: 4
      m_TileColorIndex: 0
      m_ObjectToInstantiate: {fileID: 0}
      m_TileFlags: 2
      m_ColliderType: 1
  - first: {x: 416, y: 43, z: 0}
    second:
      m_TileIndex: 0
      m_TileSpriteIndex: 4
      m_TileMatrixIndex: 4
      m_TileColorIndex: 0
      m_ObjectToInstantiate: {fileID: 0}
      m_TileFlags: 2
      m_ColliderType: 1
  - first: {x: 417, y: 43, z: 0}
    second:
      m_TileIndex: 0
      m_TileSpriteIndex: 4
      m_TileMatrixIndex: 4
      m_TileColorIndex: 0
      m_ObjectToInstantiate: {fileID: 0}
      m_TileFlags: 2
      m_ColliderType: 1
  - first: {x: 418, y: 43, z: 0}
    second:
      m_TileIndex: 0
      m_TileSpriteIndex: 8
      m_TileMatrixIndex: 2
      m_TileColorIndex: 0
      m_ObjectToInstantiate: {fileID: 0}
      m_TileFlags: 2
      m_ColliderType: 1
  - first: {x: 405, y: 44, z: 0}
    second:
      m_TileIndex: 0
      m_TileSpriteIndex: 7
      m_TileMatrixIndex: 4
      m_TileColorIndex: 0
      m_ObjectToInstantiate: {fileID: 0}
      m_TileFlags: 2
      m_ColliderType: 1
  - first: {x: 406, y: 44, z: 0}
    second:
      m_TileIndex: 0
      m_TileSpriteIndex: 5
      m_TileMatrixIndex: 4
      m_TileColorIndex: 0
      m_ObjectToInstantiate: {fileID: 0}
      m_TileFlags: 2
      m_ColliderType: 1
  - first: {x: 407, y: 44, z: 0}
    second:
      m_TileIndex: 0
      m_TileSpriteIndex: 5
      m_TileMatrixIndex: 4
      m_TileColorIndex: 0
      m_ObjectToInstantiate: {fileID: 0}
      m_TileFlags: 2
      m_ColliderType: 1
  - first: {x: 408, y: 44, z: 0}
    second:
      m_TileIndex: 0
      m_TileSpriteIndex: 5
      m_TileMatrixIndex: 4
      m_TileColorIndex: 0
      m_ObjectToInstantiate: {fileID: 0}
      m_TileFlags: 2
      m_ColliderType: 1
  - first: {x: 409, y: 44, z: 0}
    second:
      m_TileIndex: 0
      m_TileSpriteIndex: 5
      m_TileMatrixIndex: 4
      m_TileColorIndex: 0
      m_ObjectToInstantiate: {fileID: 0}
      m_TileFlags: 2
      m_ColliderType: 1
  - first: {x: 410, y: 44, z: 0}
    second:
      m_TileIndex: 0
      m_TileSpriteIndex: 5
      m_TileMatrixIndex: 4
      m_TileColorIndex: 0
      m_ObjectToInstantiate: {fileID: 0}
      m_TileFlags: 2
      m_ColliderType: 1
  - first: {x: 411, y: 44, z: 0}
    second:
      m_TileIndex: 0
      m_TileSpriteIndex: 5
      m_TileMatrixIndex: 4
      m_TileColorIndex: 0
      m_ObjectToInstantiate: {fileID: 0}
      m_TileFlags: 2
      m_ColliderType: 1
  - first: {x: 412, y: 44, z: 0}
    second:
      m_TileIndex: 0
      m_TileSpriteIndex: 5
      m_TileMatrixIndex: 4
      m_TileColorIndex: 0
      m_ObjectToInstantiate: {fileID: 0}
      m_TileFlags: 2
      m_ColliderType: 1
  - first: {x: 413, y: 44, z: 0}
    second:
      m_TileIndex: 0
      m_TileSpriteIndex: 5
      m_TileMatrixIndex: 4
      m_TileColorIndex: 0
      m_ObjectToInstantiate: {fileID: 0}
      m_TileFlags: 2
      m_ColliderType: 1
  - first: {x: 414, y: 44, z: 0}
    second:
      m_TileIndex: 0
      m_TileSpriteIndex: 5
      m_TileMatrixIndex: 4
      m_TileColorIndex: 0
      m_ObjectToInstantiate: {fileID: 0}
      m_TileFlags: 2
      m_ColliderType: 1
  - first: {x: 415, y: 44, z: 0}
    second:
      m_TileIndex: 0
      m_TileSpriteIndex: 5
      m_TileMatrixIndex: 4
      m_TileColorIndex: 0
      m_ObjectToInstantiate: {fileID: 0}
      m_TileFlags: 2
      m_ColliderType: 1
  - first: {x: 416, y: 44, z: 0}
    second:
      m_TileIndex: 0
      m_TileSpriteIndex: 5
      m_TileMatrixIndex: 4
      m_TileColorIndex: 0
      m_ObjectToInstantiate: {fileID: 0}
      m_TileFlags: 2
      m_ColliderType: 1
  - first: {x: 417, y: 44, z: 0}
    second:
      m_TileIndex: 0
      m_TileSpriteIndex: 5
      m_TileMatrixIndex: 4
      m_TileColorIndex: 0
      m_ObjectToInstantiate: {fileID: 0}
      m_TileFlags: 2
      m_ColliderType: 1
  - first: {x: 418, y: 44, z: 0}
    second:
      m_TileIndex: 0
      m_TileSpriteIndex: 3
      m_TileMatrixIndex: 4
      m_TileColorIndex: 0
      m_ObjectToInstantiate: {fileID: 0}
      m_TileFlags: 2
      m_ColliderType: 1
  - first: {x: 405, y: 45, z: 0}
    second:
      m_TileIndex: 0
      m_TileSpriteIndex: 7
      m_TileMatrixIndex: 4
      m_TileColorIndex: 0
      m_ObjectToInstantiate: {fileID: 0}
      m_TileFlags: 2
      m_ColliderType: 1
  - first: {x: 406, y: 45, z: 0}
    second:
      m_TileIndex: 0
      m_TileSpriteIndex: 5
      m_TileMatrixIndex: 4
      m_TileColorIndex: 0
      m_ObjectToInstantiate: {fileID: 0}
      m_TileFlags: 2
      m_ColliderType: 1
  - first: {x: 407, y: 45, z: 0}
    second:
      m_TileIndex: 0
      m_TileSpriteIndex: 5
      m_TileMatrixIndex: 4
      m_TileColorIndex: 0
      m_ObjectToInstantiate: {fileID: 0}
      m_TileFlags: 2
      m_ColliderType: 1
  - first: {x: 408, y: 45, z: 0}
    second:
      m_TileIndex: 0
      m_TileSpriteIndex: 5
      m_TileMatrixIndex: 4
      m_TileColorIndex: 0
      m_ObjectToInstantiate: {fileID: 0}
      m_TileFlags: 2
      m_ColliderType: 1
  - first: {x: 409, y: 45, z: 0}
    second:
      m_TileIndex: 0
      m_TileSpriteIndex: 2
      m_TileMatrixIndex: 2
      m_TileColorIndex: 0
      m_ObjectToInstantiate: {fileID: 0}
      m_TileFlags: 2
      m_ColliderType: 1
  - first: {x: 410, y: 45, z: 0}
    second:
      m_TileIndex: 0
      m_TileSpriteIndex: 6
      m_TileMatrixIndex: 4
      m_TileColorIndex: 0
      m_ObjectToInstantiate: {fileID: 0}
      m_TileFlags: 2
      m_ColliderType: 1
  - first: {x: 411, y: 45, z: 0}
    second:
      m_TileIndex: 0
      m_TileSpriteIndex: 6
      m_TileMatrixIndex: 4
      m_TileColorIndex: 0
      m_ObjectToInstantiate: {fileID: 0}
      m_TileFlags: 2
      m_ColliderType: 1
  - first: {x: 412, y: 45, z: 0}
    second:
      m_TileIndex: 0
      m_TileSpriteIndex: 6
      m_TileMatrixIndex: 4
      m_TileColorIndex: 0
      m_ObjectToInstantiate: {fileID: 0}
      m_TileFlags: 2
      m_ColliderType: 1
  - first: {x: 413, y: 45, z: 0}
    second:
      m_TileIndex: 0
      m_TileSpriteIndex: 6
      m_TileMatrixIndex: 4
      m_TileColorIndex: 0
      m_ObjectToInstantiate: {fileID: 0}
      m_TileFlags: 2
      m_ColliderType: 1
  - first: {x: 414, y: 45, z: 0}
    second:
      m_TileIndex: 0
      m_TileSpriteIndex: 6
      m_TileMatrixIndex: 4
      m_TileColorIndex: 0
      m_ObjectToInstantiate: {fileID: 0}
      m_TileFlags: 2
      m_ColliderType: 1
  - first: {x: 415, y: 45, z: 0}
    second:
      m_TileIndex: 0
      m_TileSpriteIndex: 6
      m_TileMatrixIndex: 4
      m_TileColorIndex: 0
      m_ObjectToInstantiate: {fileID: 0}
      m_TileFlags: 2
      m_ColliderType: 1
  - first: {x: 416, y: 45, z: 0}
    second:
      m_TileIndex: 0
      m_TileSpriteIndex: 6
      m_TileMatrixIndex: 4
      m_TileColorIndex: 0
      m_ObjectToInstantiate: {fileID: 0}
      m_TileFlags: 2
      m_ColliderType: 1
  - first: {x: 417, y: 45, z: 0}
    second:
      m_TileIndex: 0
      m_TileSpriteIndex: 6
      m_TileMatrixIndex: 4
      m_TileColorIndex: 0
      m_ObjectToInstantiate: {fileID: 0}
      m_TileFlags: 2
      m_ColliderType: 1
  - first: {x: 418, y: 45, z: 0}
    second:
      m_TileIndex: 0
      m_TileSpriteIndex: 9
      m_TileMatrixIndex: 4
      m_TileColorIndex: 0
      m_ObjectToInstantiate: {fileID: 0}
      m_TileFlags: 2
      m_ColliderType: 1
  - first: {x: 405, y: 46, z: 0}
    second:
      m_TileIndex: 0
      m_TileSpriteIndex: 10
      m_TileMatrixIndex: 4
      m_TileColorIndex: 0
      m_ObjectToInstantiate: {fileID: 0}
      m_TileFlags: 2
      m_ColliderType: 1
  - first: {x: 406, y: 46, z: 0}
    second:
      m_TileIndex: 0
      m_TileSpriteIndex: 6
      m_TileMatrixIndex: 4
      m_TileColorIndex: 0
      m_ObjectToInstantiate: {fileID: 0}
      m_TileFlags: 2
      m_ColliderType: 1
  - first: {x: 407, y: 46, z: 0}
    second:
      m_TileIndex: 0
      m_TileSpriteIndex: 6
      m_TileMatrixIndex: 4
      m_TileColorIndex: 0
      m_ObjectToInstantiate: {fileID: 0}
      m_TileFlags: 2
      m_ColliderType: 1
  - first: {x: 408, y: 46, z: 0}
    second:
      m_TileIndex: 0
      m_TileSpriteIndex: 6
      m_TileMatrixIndex: 4
      m_TileColorIndex: 0
      m_ObjectToInstantiate: {fileID: 0}
      m_TileFlags: 2
      m_ColliderType: 1
  - first: {x: 409, y: 46, z: 0}
    second:
      m_TileIndex: 0
      m_TileSpriteIndex: 9
      m_TileMatrixIndex: 4
      m_TileColorIndex: 0
      m_ObjectToInstantiate: {fileID: 0}
      m_TileFlags: 2
      m_ColliderType: 1
  m_AnimatedTiles: {}
  m_TileAssetArray:
  - m_RefCount: 127
    m_Data: {fileID: 11400000, guid: e5756ce79be5ca845b7fe824d5bec07b, type: 2}
  m_TileSpriteArray:
  - m_RefCount: 0
    m_Data: {fileID: 0}
  - m_RefCount: 0
    m_Data: {fileID: 0}
  - m_RefCount: 1
    m_Data: {fileID: 21300074, guid: f0d1633a36cd14846a5578b04ee3e92b, type: 3}
  - m_RefCount: 8
    m_Data: {fileID: 21300056, guid: f0d1633a36cd14846a5578b04ee3e92b, type: 3}
  - m_RefCount: 11
    m_Data: {fileID: 21300066, guid: f0d1633a36cd14846a5578b04ee3e92b, type: 3}
  - m_RefCount: 80
    m_Data: {fileID: 21300038, guid: f0d1633a36cd14846a5578b04ee3e92b, type: 3}
  - m_RefCount: 11
    m_Data: {fileID: 21300022, guid: f0d1633a36cd14846a5578b04ee3e92b, type: 3}
  - m_RefCount: 10
    m_Data: {fileID: 21300034, guid: f0d1633a36cd14846a5578b04ee3e92b, type: 3}
  - m_RefCount: 3
    m_Data: {fileID: 21300064, guid: f0d1633a36cd14846a5578b04ee3e92b, type: 3}
  - m_RefCount: 2
    m_Data: {fileID: 21300024, guid: f0d1633a36cd14846a5578b04ee3e92b, type: 3}
  - m_RefCount: 1
    m_Data: {fileID: 21300018, guid: f0d1633a36cd14846a5578b04ee3e92b, type: 3}
  - m_RefCount: 0
    m_Data: {fileID: 0}
  - m_RefCount: 0
    m_Data: {fileID: 0}
  m_TileMatrixArray:
  - m_RefCount: 0
    m_Data:
      e00: 0
      e01: 6.792967e-35
      e02: 0
      e03: 830.6123
      e10: 0
      e11: 3.7438e-41
      e12: 0
      e13: 1e-45
      e20: 492838940
      e21: 8.760324e-39
      e22: 1.7574203e-35
      e23: 0
      e30: 0
      e31: 0
      e32: 0
      e33: 0
  - m_RefCount: 0
    m_Data:
      e00: 0
      e01: 6.7872e-35
      e02: 0
      e03: 830.6123
      e10: 0
      e11: 3.7438e-41
      e12: 0
      e13: 1e-45
      e20: 373301280
      e21: 26.286148
      e22: -1.1181474e-29
      e23: 0
      e30: 0
      e31: 1e-45
      e32: 0
      e33: 0
  - m_RefCount: 3
    m_Data:
      e00: -1
      e01: 0
      e02: 0
      e03: 0
      e10: -0
      e11: 1
      e12: 0
      e13: 0
      e20: -0
      e21: 0
      e22: 1
      e23: 0
      e30: 0
      e31: 0
      e32: 0
      e33: 1
  - m_RefCount: 0
    m_Data:
      e00: 0
      e01: 6.782856e-35
      e02: 0
      e03: 830.6123
      e10: 0
      e11: 3.7438e-41
      e12: 0
      e13: 1e-45
      e20: -1.2375449e-29
      e21: 26.286148
      e22: -1.0999004e-29
      e23: 0
      e30: 0
      e31: 1e-45
      e32: 0
      e33: 0
  - m_RefCount: 124
    m_Data:
      e00: 1
      e01: 0
      e02: 0
      e03: 0
      e10: 0
      e11: 1
      e12: 0
      e13: 0
      e20: 0
      e21: 0
      e22: 1
      e23: 0
      e30: 0
      e31: 0
      e32: 0
      e33: 1
  - m_RefCount: 0
    m_Data:
      e00: 0
      e01: 6.792967e-35
      e02: 0
      e03: 830.6123
      e10: 0
      e11: 3.7438e-41
      e12: 0
      e13: 1e-45
      e20: -1.2375449e-29
      e21: 26.286148
      e22: -1.0999004e-29
      e23: 0
      e30: 0
      e31: 1e-45
      e32: 0
      e33: 0
  m_TileColorArray:
  - m_RefCount: 127
    m_Data: {r: 1, g: 1, b: 1, a: 1}
  m_AnimationFrameRate: 1
  m_Color: {r: 1, g: 1, b: 1, a: 1}
  m_Origin: {x: -6, y: 0, z: 0}
  m_Size: {x: 644, y: 59, z: 1}
  m_TileAnchor: {x: 0.5, y: 0.5, z: 0}
  m_TileOrientation: 0
  m_TileOrientationMatrix:
    e00: 1
    e01: 0
    e02: 0
    e03: 0
    e10: 0
    e11: 1
    e12: 0
    e13: 0
    e20: 0
    e21: 0
    e22: 1
    e23: 0
    e30: 0
    e31: 0
    e32: 0
    e33: 1
--- !u!483693784 &4755910405570233447
TilemapRenderer:
  m_ObjectHideFlags: 0
  m_CorrespondingSourceObject: {fileID: 0}
  m_PrefabInstance: {fileID: 0}
  m_PrefabAsset: {fileID: 0}
  m_GameObject: {fileID: 8935126983382226720}
  m_Enabled: 1
  m_CastShadows: 0
  m_ReceiveShadows: 0
  m_DynamicOccludee: 1
  m_MotionVectors: 1
  m_LightProbeUsage: 0
  m_ReflectionProbeUsage: 0
  m_RenderingLayerMask: 1
  m_RendererPriority: 0
  m_Materials:
  - {fileID: 10754, guid: 0000000000000000f000000000000000, type: 0}
  m_StaticBatchInfo:
    firstSubMesh: 0
    subMeshCount: 0
  m_StaticBatchRoot: {fileID: 0}
  m_ProbeAnchor: {fileID: 0}
  m_LightProbeVolumeOverride: {fileID: 0}
  m_ScaleInLightmap: 1
  m_PreserveUVs: 0
  m_IgnoreNormalsForChartDetection: 0
  m_ImportantGI: 0
  m_StitchLightmapSeams: 0
  m_SelectedEditorRenderState: 0
  m_MinimumChartSize: 4
  m_AutoUVMaxDistance: 0.5
  m_AutoUVMaxAngle: 89
  m_LightmapParameters: {fileID: 0}
  m_SortingLayerID: 528929771
  m_SortingLayer: 4
  m_SortingOrder: 0
  m_ChunkSize: {x: 32, y: 32, z: 32}
  m_ChunkCullingBounds: {x: 0, y: 0, z: 0}
  m_MaxChunkCount: 16
  m_MaxFrameAge: 16
  m_SortOrder: 0
  m_Mode: 0
  m_DetectChunkCullingBounds: 0
  m_MaskInteraction: 0
--- !u!19719996 &2909305847649571256
TilemapCollider2D:
  m_ObjectHideFlags: 0
  m_CorrespondingSourceObject: {fileID: 0}
  m_PrefabInstance: {fileID: 0}
  m_PrefabAsset: {fileID: 0}
  m_GameObject: {fileID: 8935126983382226720}
  m_Enabled: 1
  m_Density: 1
  m_Material: {fileID: 0}
  m_IsTrigger: 0
  m_UsedByEffector: 0
  m_UsedByComposite: 1
  m_Offset: {x: 0, y: 0}
--- !u!50 &6432665326799087227
Rigidbody2D:
  serializedVersion: 4
  m_ObjectHideFlags: 0
  m_CorrespondingSourceObject: {fileID: 0}
  m_PrefabInstance: {fileID: 0}
  m_PrefabAsset: {fileID: 0}
  m_GameObject: {fileID: 8935126983382226720}
  m_BodyType: 2
  m_Simulated: 1
  m_UseFullKinematicContacts: 0
  m_UseAutoMass: 0
  m_Mass: 1
  m_LinearDrag: 0
  m_AngularDrag: 0.05
  m_GravityScale: 1
  m_Material: {fileID: 0}
  m_Interpolate: 0
  m_SleepingMode: 1
  m_CollisionDetection: 0
  m_Constraints: 0
--- !u!66 &2679117887994721738
CompositeCollider2D:
  m_ObjectHideFlags: 0
  m_CorrespondingSourceObject: {fileID: 0}
  m_PrefabInstance: {fileID: 0}
  m_PrefabAsset: {fileID: 0}
  m_GameObject: {fileID: 8935126983382226720}
  m_Enabled: 1
  m_Density: 1
  m_Material: {fileID: 0}
  m_IsTrigger: 0
  m_UsedByEffector: 0
  m_UsedByComposite: 0
  m_Offset: {x: 0, y: 0}
  m_GeometryType: 0
  m_GenerationType: 0
  m_EdgeRadius: 0
  m_ColliderPaths:
  - m_Collider: {fileID: 2909305847649571256}
    m_ColliderPaths:
    - - X: 4139924736
        Y: 359989216
      - X: 4140056064
        Y: 359989216
      - X: 4140056064
        Y: 359998880
      - X: 4140065536
        Y: 359998880
      - X: 4140065536
        Y: 350008608
      - X: 4149987840
        Y: 350008608
      - X: 4149987840
        Y: 359998880
      - X: 4140065536
        Y: 359998880
      - X: 4140065536
        Y: 360071840
      - X: 4149987840
        Y: 360071840
      - X: 4149987840
        Y: 359998880
      - X: 4150046464
        Y: 359998880
      - X: 4150046464
        Y: 429989216
      - X: 4150056192
        Y: 429989216
      - X: 4150056192
        Y: 430008608
      - X: 4179924736
        Y: 430008608
      - X: 4179924736
        Y: 439989216
      - X: 4180056064
        Y: 439989216
      - X: 4180056064
        Y: 439998880
      - X: 4180065536
        Y: 439998880
      - X: 4180065536
        Y: 430008608
      - X: 4189987840
        Y: 430008608
      - X: 4189987840
        Y: 439998880
      - X: 4180065536
        Y: 439998880
      - X: 4180065536
        Y: 440071840
      - X: 4189987840
        Y: 440071840
      - X: 4189987840
        Y: 439998880
      - X: 4190046464
        Y: 439998880
      - X: 4190046464
        Y: 460042720
      - X: 4100046336
        Y: 460042720
      - X: 4100046336
        Y: 470042720
      - X: 4050065664
        Y: 470042720
      - X: 4050012160
        Y: 469989216
      - X: 4050012160
        Y: 350008608
      - X: 4139924736
        Y: 350008608
    - - X: 4099982848
        Y: 450052416
      - X: 4099982848
        Y: 459979488
      - X: 4090080750
        Y: 459979488
      - X: 4090080256
        Y: 460071840
      - X: 4099982848
        Y: 460071840
      - X: 4099982848
        Y: 459979488
      - X: 4099992576
        Y: 459979488
      - X: 4099992576
        Y: 450052416
    - - X: 4090187008
        Y: 450008608
      - X: 4090143436
        Y: 450052416
      - X: 4090056192
        Y: 450052416
      - X: 4090056192
        Y: 459979488
      - X: 4090080750
        Y: 459979488
      - X: 4090133760
        Y: 450062144
      - X: 4090143436
        Y: 450052416
      - X: 4099982848
        Y: 450052416
      - X: 4099982848
        Y: 450008608
  m_CompositePaths:
    m_Paths:
    - - {x: 413.9925, y: 35.99892}
      - {x: 414.0056, y: 35.99892}
      - {x: 414.0056, y: 35.99989}
      - {x: 414.00656, y: 35.99989}
      - {x: 414.00656, y: 35.000862}
      - {x: 414.99878, y: 35.000862}
      - {x: 414.99878, y: 35.99989}
      - {x: 414.00656, y: 35.99989}
      - {x: 414.00656, y: 36.007183}
      - {x: 414.99878, y: 36.007183}
      - {x: 414.99878, y: 35.99989}
      - {x: 415.00464, y: 35.99989}
      - {x: 415.00464, y: 42.99892}
      - {x: 415.0056, y: 42.99892}
      - {x: 415.0056, y: 43.000862}
      - {x: 417.9925, y: 43.000862}
      - {x: 417.9925, y: 43.99892}
      - {x: 418.0056, y: 43.99892}
      - {x: 418.0056, y: 43.99989}
      - {x: 418.00656, y: 43.99989}
      - {x: 418.00656, y: 43.000862}
      - {x: 418.99878, y: 43.000862}
      - {x: 418.99878, y: 43.99989}
      - {x: 418.00656, y: 43.99989}
      - {x: 418.00656, y: 44.007183}
      - {x: 418.99878, y: 44.007183}
      - {x: 418.99878, y: 43.99989}
      - {x: 419.00464, y: 43.99989}
      - {x: 419.00464, y: 46.004272}
      - {x: 410.00464, y: 46.004272}
      - {x: 410.00464, y: 47.004272}
      - {x: 405.00656, y: 47.004272}
      - {x: 405.00122, y: 46.99892}
      - {x: 405.00122, y: 35.000862}
      - {x: 413.9925, y: 35.000862}
    - - {x: 409.9983, y: 45.00524}
      - {x: 409.9983, y: 45.997948}
      - {x: 409.0081, y: 45.997948}
      - {x: 409.00803, y: 46.007183}
      - {x: 409.9983, y: 46.007183}
      - {x: 409.9983, y: 45.997948}
      - {x: 409.99927, y: 45.997948}
      - {x: 409.99927, y: 45.00524}
    - - {x: 409.0187, y: 45.000862}
      - {x: 409.01434, y: 45.00524}
      - {x: 409.0056, y: 45.00524}
      - {x: 409.0056, y: 45.997948}
      - {x: 409.0081, y: 45.997948}
      - {x: 409.01337, y: 45.006214}
      - {x: 409.01434, y: 45.00524}
      - {x: 409.9983, y: 45.00524}
      - {x: 409.9983, y: 45.000862}
  m_VertexDistance: 0.0005
