%YAML 1.1
%TAG !u! tag:unity3d.com,2011:
--- !u!1001 &6818252138119073172
PrefabInstance:
  m_ObjectHideFlags: 0
  serializedVersion: 2
  m_Modification:
    m_TransformParent: {fileID: 0}
    m_Modifications:
    - target: {fileID: 5759656880147531762, guid: 00fd1b33366426642b8e0a06466c914f,
        type: 3}
      propertyPath: m_Name
      value: Enemy2 (2.2) Variant
      objectReference: {fileID: 0}
    - target: {fileID: 5759656880147531757, guid: 00fd1b33366426642b8e0a06466c914f,
        type: 3}
      propertyPath: m_LocalPosition.x
      value: 148.62
      objectReference: {fileID: 0}
    - target: {fileID: 5759656880147531757, guid: 00fd1b33366426642b8e0a06466c914f,
        type: 3}
      propertyPath: m_LocalPosition.y
      value: 9.94
      objectReference: {fileID: 0}
    - target: {fileID: 5759656880147531757, guid: 00fd1b33366426642b8e0a06466c914f,
        type: 3}
      propertyPath: m_LocalPosition.z
      value: 0.12954363
      objectReference: {fileID: 0}
    - target: {fileID: 5759656880147531757, guid: 00fd1b33366426642b8e0a06466c914f,
        type: 3}
      propertyPath: m_LocalRotation.x
      value: -0
      objectReference: {fileID: 0}
    - target: {fileID: 5759656880147531757, guid: 00fd1b33366426642b8e0a06466c914f,
        type: 3}
      propertyPath: m_LocalRotation.y
      value: -0
      objectReference: {fileID: 0}
    - target: {fileID: 5759656880147531757, guid: 00fd1b33366426642b8e0a06466c914f,
        type: 3}
      propertyPath: m_LocalRotation.z
      value: -0
      objectReference: {fileID: 0}
    - target: {fileID: 5759656880147531757, guid: 00fd1b33366426642b8e0a06466c914f,
        type: 3}
      propertyPath: m_LocalRotation.w
      value: 1
      objectReference: {fileID: 0}
    - target: {fileID: 5759656880147531757, guid: 00fd1b33366426642b8e0a06466c914f,
        type: 3}
      propertyPath: m_RootOrder
      value: 0
      objectReference: {fileID: 0}
    - target: {fileID: 5759656880147531757, guid: 00fd1b33366426642b8e0a06466c914f,
        type: 3}
      propertyPath: m_LocalEulerAnglesHint.x
      value: 0
      objectReference: {fileID: 0}
    - target: {fileID: 5759656880147531757, guid: 00fd1b33366426642b8e0a06466c914f,
        type: 3}
      propertyPath: m_LocalEulerAnglesHint.y
      value: 0
      objectReference: {fileID: 0}
    - target: {fileID: 5759656880147531757, guid: 00fd1b33366426642b8e0a06466c914f,
        type: 3}
      propertyPath: m_LocalEulerAnglesHint.z
      value: 0
      objectReference: {fileID: 0}
    - target: {fileID: 5759656880147531757, guid: 00fd1b33366426642b8e0a06466c914f,
        type: 3}
      propertyPath: m_LocalScale.x
      value: -1
      objectReference: {fileID: 0}
    - target: {fileID: 5759656880147531760, guid: 00fd1b33366426642b8e0a06466c914f,
        type: 3}
      propertyPath: m_Size.x
      value: 1.9
      objectReference: {fileID: 0}
    - target: {fileID: 5759656880147531760, guid: 00fd1b33366426642b8e0a06466c914f,
        type: 3}
      propertyPath: m_Offset.x
      value: -0.15
      objectReference: {fileID: 0}
    m_RemovedComponents: []
  m_SourcePrefab: {fileID: 100100000, guid: 00fd1b33366426642b8e0a06466c914f, type: 3}
