%YAML 1.1
%TAG !u! tag:unity3d.com,2011:
--- !u!1 &1905793161
GameObject:
  m_ObjectHideFlags: 0
  m_CorrespondingSourceObject: {fileID: 0}
  m_PrefabInstance: {fileID: 0}
  m_PrefabAsset: {fileID: 0}
  serializedVersion: 6
  m_Component:
  - component: {fileID: 1905793162}
  - component: {fileID: 1905793163}
  m_Layer: 13
  m_Name: GameObject
  m_TagString: Untagged
  m_Icon: {fileID: 0}
  m_NavMeshLayer: 0
  m_StaticEditorFlags: 0
  m_IsActive: 1
--- !u!4 &1905793162
Transform:
  m_ObjectHideFlags: 0
  m_CorrespondingSourceObject: {fileID: 0}
  m_PrefabInstance: {fileID: 0}
  m_PrefabAsset: {fileID: 0}
  m_GameObject: {fileID: 1905793161}
  m_LocalRotation: {x: 0, y: 0, z: 0, w: 1}
  m_LocalPosition: {x: 0.1012, y: 0.667, z: 0}
  m_LocalScale: {x: 0.11779604, y: 0.1402, z: 0.1402}
  m_Children: []
  m_Father: {fileID: 5759656880147531757}
  m_RootOrder: 0
  m_LocalEulerAnglesHint: {x: 0, y: 0, z: 0}
--- !u!212 &1905793163
SpriteRenderer:
  m_ObjectHideFlags: 0
  m_CorrespondingSourceObject: {fileID: 0}
  m_PrefabInstance: {fileID: 0}
  m_PrefabAsset: {fileID: 0}
  m_GameObject: {fileID: 1905793161}
  m_Enabled: 1
  m_CastShadows: 0
  m_ReceiveShadows: 0
  m_DynamicOccludee: 1
  m_MotionVectors: 1
  m_LightProbeUsage: 1
  m_ReflectionProbeUsage: 1
  m_RenderingLayerMask: 1
  m_RendererPriority: 0
  m_Materials:
  - {fileID: 2100000, guid: 3599d69f6255eb04f9d3fc305febaa2c, type: 2}
  m_StaticBatchInfo:
    firstSubMesh: 0
    subMeshCount: 0
  m_StaticBatchRoot: {fileID: 0}
  m_ProbeAnchor: {fileID: 0}
  m_LightProbeVolumeOverride: {fileID: 0}
  m_ScaleInLightmap: 1
  m_PreserveUVs: 0
  m_IgnoreNormalsForChartDetection: 0
  m_ImportantGI: 0
  m_StitchLightmapSeams: 0
  m_SelectedEditorRenderState: 0
  m_MinimumChartSize: 4
  m_AutoUVMaxDistance: 0.5
  m_AutoUVMaxAngle: 89
  m_LightmapParameters: {fileID: 0}
  m_SortingLayerID: 528929771
  m_SortingLayer: 4
  m_SortingOrder: 0
  m_Sprite: {fileID: 21300000, guid: 5dacbefd408e9f54d8e7060b01d39e35, type: 3}
  m_Color: {r: 1, g: 1, b: 1, a: 1}
  m_FlipX: 0
  m_FlipY: 0
  m_DrawMode: 0
  m_Size: {x: 1, y: 1}
  m_AdaptiveModeThreshold: 0.5
  m_SpriteTileMode: 0
  m_WasSpriteAssigned: 1
  m_MaskInteraction: 0
  m_SpriteSortPoint: 0
--- !u!95 &1880648847
Animator:
  serializedVersion: 3
  m_ObjectHideFlags: 0
  m_CorrespondingSourceObject: {fileID: 0}
  m_PrefabInstance: {fileID: 0}
  m_PrefabAsset: {fileID: 0}
  m_GameObject: {fileID: 5759656880147531762}
  m_Enabled: 1
  m_Avatar: {fileID: 0}
  m_Controller: {fileID: 9100000, guid: c14f88158e8bcaf4395e875657df8731, type: 2}
  m_CullingMode: 0
  m_UpdateMode: 0
  m_ApplyRootMotion: 0
  m_LinearVelocityBlending: 0
  m_WarningMessage: 
  m_HasTransformHierarchy: 1
  m_AllowConstantClipSamplingOptimization: 1
  m_KeepAnimatorControllerStateOnDisable: 0
--- !u!1001 &3819551297319537431
PrefabInstance:
  m_ObjectHideFlags: 0
  serializedVersion: 2
  m_Modification:
    m_TransformParent: {fileID: 0}
    m_Modifications:
    - target: {fileID: 8858488939796303077, guid: a565694761d54fa41894c2cd00c2fcc8,
        type: 3}
      propertyPath: m_Name
      value: Enemy2 (1) Variant (1) Variant
      objectReference: {fileID: 0}
    - target: {fileID: 8858488939796303098, guid: a565694761d54fa41894c2cd00c2fcc8,
        type: 3}
      propertyPath: m_LocalPosition.x
      value: 534.5
      objectReference: {fileID: 0}
    - target: {fileID: 8858488939796303098, guid: a565694761d54fa41894c2cd00c2fcc8,
        type: 3}
      propertyPath: m_LocalPosition.y
      value: 12.87
      objectReference: {fileID: 0}
    - target: {fileID: 8858488939796303098, guid: a565694761d54fa41894c2cd00c2fcc8,
        type: 3}
      propertyPath: m_LocalPosition.z
      value: 0.12954363
      objectReference: {fileID: 0}
    - target: {fileID: 8858488939796303098, guid: a565694761d54fa41894c2cd00c2fcc8,
        type: 3}
      propertyPath: m_LocalRotation.x
      value: 0
      objectReference: {fileID: 0}
    - target: {fileID: 8858488939796303098, guid: a565694761d54fa41894c2cd00c2fcc8,
        type: 3}
      propertyPath: m_LocalRotation.y
      value: 0
      objectReference: {fileID: 0}
    - target: {fileID: 8858488939796303098, guid: a565694761d54fa41894c2cd00c2fcc8,
        type: 3}
      propertyPath: m_LocalRotation.z
      value: 0
      objectReference: {fileID: 0}
    - target: {fileID: 8858488939796303098, guid: a565694761d54fa41894c2cd00c2fcc8,
        type: 3}
      propertyPath: m_LocalRotation.w
      value: 1
      objectReference: {fileID: 0}
    - target: {fileID: 8858488939796303098, guid: a565694761d54fa41894c2cd00c2fcc8,
        type: 3}
      propertyPath: m_RootOrder
      value: 0
      objectReference: {fileID: 0}
    - target: {fileID: 8858488939796303098, guid: a565694761d54fa41894c2cd00c2fcc8,
        type: 3}
      propertyPath: m_LocalEulerAnglesHint.x
      value: 0
      objectReference: {fileID: 0}
    - target: {fileID: 8858488939796303098, guid: a565694761d54fa41894c2cd00c2fcc8,
        type: 3}
      propertyPath: m_LocalEulerAnglesHint.y
      value: 0
      objectReference: {fileID: 0}
    - target: {fileID: 8858488939796303098, guid: a565694761d54fa41894c2cd00c2fcc8,
        type: 3}
      propertyPath: m_LocalEulerAnglesHint.z
      value: 0
      objectReference: {fileID: 0}
    - target: {fileID: 8858488939796303098, guid: a565694761d54fa41894c2cd00c2fcc8,
        type: 3}
      propertyPath: m_LocalScale.y
      value: 1
      objectReference: {fileID: 0}
    - target: {fileID: 8858488939796303097, guid: a565694761d54fa41894c2cd00c2fcc8,
        type: 3}
      propertyPath: m_Sprite
      value: 
      objectReference: {fileID: 21300000, guid: 802d95f19cc2e7c40891c97ac1debdec,
        type: 3}
    - target: {fileID: 8858488939796303097, guid: a565694761d54fa41894c2cd00c2fcc8,
        type: 3}
      propertyPath: m_Color.r
      value: 1
      objectReference: {fileID: 0}
    - target: {fileID: 8858488939796303097, guid: a565694761d54fa41894c2cd00c2fcc8,
        type: 3}
      propertyPath: m_Color.g
      value: 1
      objectReference: {fileID: 0}
    - target: {fileID: 8858488939796303097, guid: a565694761d54fa41894c2cd00c2fcc8,
        type: 3}
      propertyPath: m_Color.b
      value: 1
      objectReference: {fileID: 0}
    - target: {fileID: 8858488939796303079, guid: a565694761d54fa41894c2cd00c2fcc8,
        type: 3}
      propertyPath: m_Offset.y
      value: -0.1
      objectReference: {fileID: 0}
    - target: {fileID: 8858488939796303079, guid: a565694761d54fa41894c2cd00c2fcc8,
        type: 3}
      propertyPath: m_SpriteTilingProperty.oldSize.x
      value: 2.1777778
      objectReference: {fileID: 0}
    - target: {fileID: 8858488939796303079, guid: a565694761d54fa41894c2cd00c2fcc8,
        type: 3}
      propertyPath: m_SpriteTilingProperty.oldSize.y
      value: 1.8222222
      objectReference: {fileID: 0}
    - target: {fileID: 8858488939796303079, guid: a565694761d54fa41894c2cd00c2fcc8,
        type: 3}
      propertyPath: m_Size.x
      value: 1.9
      objectReference: {fileID: 0}
    - target: {fileID: 8858488939796303079, guid: a565694761d54fa41894c2cd00c2fcc8,
        type: 3}
      propertyPath: m_Size.y
      value: 1.6
      objectReference: {fileID: 0}
    - target: {fileID: 8858488939796303079, guid: a565694761d54fa41894c2cd00c2fcc8,
        type: 3}
      propertyPath: m_Offset.x
      value: -0.15
      objectReference: {fileID: 0}
    m_RemovedComponents: []
  m_SourcePrefab: {fileID: 100100000, guid: a565694761d54fa41894c2cd00c2fcc8, type: 3}
--- !u!1 &5759656880147531762 stripped
GameObject:
  m_CorrespondingSourceObject: {fileID: 8858488939796303077, guid: a565694761d54fa41894c2cd00c2fcc8,
    type: 3}
  m_PrefabInstance: {fileID: 3819551297319537431}
  m_PrefabAsset: {fileID: 0}
--- !u!4 &5759656880147531757 stripped
Transform:
  m_CorrespondingSourceObject: {fileID: 8858488939796303098, guid: a565694761d54fa41894c2cd00c2fcc8,
    type: 3}
  m_PrefabInstance: {fileID: 3819551297319537431}
  m_PrefabAsset: {fileID: 0}
