%YAML 1.1
%TAG !u! tag:unity3d.com,2011:
--- !u!1001 &5568850734195976043
PrefabInstance:
  m_ObjectHideFlags: 0
  serializedVersion: 2
  m_Modification:
    m_TransformParent: {fileID: 0}
    m_Modifications:
    - target: {fileID: 7810810834043360561, guid: 1bc0d9b8a9d659647aeab8782225a681,
        type: 3}
      propertyPath: m_Name
      value: Enemy1 (0) Variant (11) Variant
      objectReference: {fileID: 0}
    - target: {fileID: 7810810834043360555, guid: 1bc0d9b8a9d659647aeab8782225a681,
        type: 3}
      propertyPath: m_LocalPosition.x
      value: 442.55
      objectReference: {fileID: 0}
    - target: {fileID: 7810810834043360555, guid: 1bc0d9b8a9d659647aeab8782225a681,
        type: 3}
      propertyPath: m_LocalPosition.y
      value: -0.36
      objectReference: {fileID: 0}
    - target: {fileID: 7810810834043360555, guid: 1bc0d9b8a9d659647aeab8782225a681,
        type: 3}
      propertyPath: m_LocalPosition.z
      value: 0
      objectReference: {fileID: 0}
    - target: {fileID: 7810810834043360555, guid: 1bc0d9b8a9d659647aeab8782225a681,
        type: 3}
      propertyPath: m_LocalRotation.x
      value: -0
      objectReference: {fileID: 0}
    - target: {fileID: 7810810834043360555, guid: 1bc0d9b8a9d659647aeab8782225a681,
        type: 3}
      propertyPath: m_LocalRotation.y
      value: -0
      objectReference: {fileID: 0}
    - target: {fileID: 7810810834043360555, guid: 1bc0d9b8a9d659647aeab8782225a681,
        type: 3}
      propertyPath: m_LocalRotation.z
      value: -0
      objectReference: {fileID: 0}
    - target: {fileID: 7810810834043360555, guid: 1bc0d9b8a9d659647aeab8782225a681,
        type: 3}
      propertyPath: m_LocalRotation.w
      value: 1
      objectReference: {fileID: 0}
    - target: {fileID: 7810810834043360555, guid: 1bc0d9b8a9d659647aeab8782225a681,
        type: 3}
      propertyPath: m_RootOrder
      value: 0
      objectReference: {fileID: 0}
    - target: {fileID: 7810810834043360555, guid: 1bc0d9b8a9d659647aeab8782225a681,
        type: 3}
      propertyPath: m_LocalEulerAnglesHint.x
      value: 0
      objectReference: {fileID: 0}
    - target: {fileID: 7810810834043360555, guid: 1bc0d9b8a9d659647aeab8782225a681,
        type: 3}
      propertyPath: m_LocalEulerAnglesHint.y
      value: 0
      objectReference: {fileID: 0}
    - target: {fileID: 7810810834043360555, guid: 1bc0d9b8a9d659647aeab8782225a681,
        type: 3}
      propertyPath: m_LocalEulerAnglesHint.z
      value: 0
      objectReference: {fileID: 0}
    - target: {fileID: 7810810834043360554, guid: 1bc0d9b8a9d659647aeab8782225a681,
        type: 3}
      propertyPath: m_CollisionDetection
      value: 1
      objectReference: {fileID: 0}
    m_RemovedComponents: []
  m_SourcePrefab: {fileID: 100100000, guid: 1bc0d9b8a9d659647aeab8782225a681, type: 3}
