%YAML 1.1
%TAG !u! tag:unity3d.com,2011:
--- !u!1001 &8344636527436826489
PrefabInstance:
  m_ObjectHideFlags: 0
  serializedVersion: 2
  m_Modification:
    m_TransformParent: {fileID: 0}
    m_Modifications:
    - target: {fileID: 1024183141, guid: b571bbc6b18ed824eae802d21ad44625, type: 3}
      propertyPath: m_Name
      value: Enemy1 (13) Variant
      objectReference: {fileID: 0}
    - target: {fileID: 1024183151, guid: b571bbc6b18ed824eae802d21ad44625, type: 3}
      propertyPath: m_LocalPosition.x
      value: 448.26996
      objectReference: {fileID: 0}
    - target: {fileID: 1024183151, guid: b571bbc6b18ed824eae802d21ad44625, type: 3}
      propertyPath: m_LocalPosition.y
      value: 0.18
      objectReference: {fileID: 0}
    - target: {fileID: 1024183151, guid: b571bbc6b18ed824eae802d21ad44625, type: 3}
      propertyPath: m_LocalPosition.z
      value: 0
      objectReference: {fileID: 0}
    - target: {fileID: 1024183151, guid: b571bbc6b18ed824eae802d21ad44625, type: 3}
      propertyPath: m_LocalRotation.x
      value: -0
      objectReference: {fileID: 0}
    - target: {fileID: 1024183151, guid: b571bbc6b18ed824eae802d21ad44625, type: 3}
      propertyPath: m_LocalRotation.y
      value: -0
      objectReference: {fileID: 0}
    - target: {fileID: 1024183151, guid: b571bbc6b18ed824eae802d21ad44625, type: 3}
      propertyPath: m_LocalRotation.z
      value: -0
      objectReference: {fileID: 0}
    - target: {fileID: 1024183151, guid: b571bbc6b18ed824eae802d21ad44625, type: 3}
      propertyPath: m_LocalRotation.w
      value: 1
      objectReference: {fileID: 0}
    - target: {fileID: 1024183151, guid: b571bbc6b18ed824eae802d21ad44625, type: 3}
      propertyPath: m_RootOrder
      value: 0
      objectReference: {fileID: 0}
    - target: {fileID: 1024183151, guid: b571bbc6b18ed824eae802d21ad44625, type: 3}
      propertyPath: m_LocalEulerAnglesHint.x
      value: 0
      objectReference: {fileID: 0}
    - target: {fileID: 1024183151, guid: b571bbc6b18ed824eae802d21ad44625, type: 3}
      propertyPath: m_LocalEulerAnglesHint.y
      value: 0
      objectReference: {fileID: 0}
    - target: {fileID: 1024183151, guid: b571bbc6b18ed824eae802d21ad44625, type: 3}
      propertyPath: m_LocalEulerAnglesHint.z
      value: 0
      objectReference: {fileID: 0}
    - target: {fileID: 1024183151, guid: b571bbc6b18ed824eae802d21ad44625, type: 3}
      propertyPath: m_LocalScale.x
      value: 1.25
      objectReference: {fileID: 0}
    - target: {fileID: 1024183151, guid: b571bbc6b18ed824eae802d21ad44625, type: 3}
      propertyPath: m_LocalScale.y
      value: 1.25
      objectReference: {fileID: 0}
    - target: {fileID: 1024183142, guid: b571bbc6b18ed824eae802d21ad44625, type: 3}
      propertyPath: m_Points.m_Paths.Array.data[2].Array.size
      value: 3
      objectReference: {fileID: 0}
    - target: {fileID: 1024183142, guid: b571bbc6b18ed824eae802d21ad44625, type: 3}
      propertyPath: m_IsTrigger
      value: 1
      objectReference: {fileID: 0}
    - target: {fileID: 1024183142, guid: b571bbc6b18ed824eae802d21ad44625, type: 3}
      propertyPath: m_Points.m_Paths.Array.data[2].Array.data[0].x
      value: 0.022949219
      objectReference: {fileID: 0}
    - target: {fileID: 1024183142, guid: b571bbc6b18ed824eae802d21ad44625, type: 3}
      propertyPath: m_Points.m_Paths.Array.data[2].Array.data[0].y
      value: -0.13339101
      objectReference: {fileID: 0}
    - target: {fileID: 1024183142, guid: b571bbc6b18ed824eae802d21ad44625, type: 3}
      propertyPath: m_Points.m_Paths.Array.data[2].Array.data[1].y
      value: 0.1562263
      objectReference: {fileID: 0}
    - target: {fileID: 1024183142, guid: b571bbc6b18ed824eae802d21ad44625, type: 3}
      propertyPath: m_Points.m_Paths.Array.data[2].Array.data[2].x
      value: 0.05324707
      objectReference: {fileID: 0}
    - target: {fileID: 1024183142, guid: b571bbc6b18ed824eae802d21ad44625, type: 3}
      propertyPath: m_Points.m_Paths.Array.data[2].Array.data[2].y
      value: -0.16059761
      objectReference: {fileID: 0}
    - target: {fileID: 1024183142, guid: b571bbc6b18ed824eae802d21ad44625, type: 3}
      propertyPath: m_Points.m_Paths.Array.data[2].Array.data[3].x
      value: -0.24444444
      objectReference: {fileID: 0}
    - target: {fileID: 1024183142, guid: b571bbc6b18ed824eae802d21ad44625, type: 3}
      propertyPath: m_Points.m_Paths.Array.data[2].Array.data[4].x
      value: -0.21111111
      objectReference: {fileID: 0}
    - target: {fileID: 1024183142, guid: b571bbc6b18ed824eae802d21ad44625, type: 3}
      propertyPath: m_Points.m_Paths.Array.data[2].Array.data[4].y
      value: 0.9944445
      objectReference: {fileID: 0}
    - target: {fileID: 1024183142, guid: b571bbc6b18ed824eae802d21ad44625, type: 3}
      propertyPath: m_Points.m_Paths.Array.data[2].Array.data[5].y
      value: 0.9944445
      objectReference: {fileID: 0}
    - target: {fileID: 1024183142, guid: b571bbc6b18ed824eae802d21ad44625, type: 3}
      propertyPath: m_Points.m_Paths.Array.data[2].Array.data[1].x
      value: -0.01958008
      objectReference: {fileID: 0}
    m_RemovedComponents: []
  m_SourcePrefab: {fileID: 100100000, guid: b571bbc6b18ed824eae802d21ad44625, type: 3}
