%YAML 1.1
%TAG !u! tag:unity3d.com,2011:
--- !u!1 &3514840132420956017
GameObject:
  m_ObjectHideFlags: 0
  m_CorrespondingSourceObject: {fileID: 0}
  m_PrefabInstance: {fileID: 0}
  m_PrefabAsset: {fileID: 0}
  serializedVersion: 6
  m_Component:
  - component: {fileID: 3514840132420956031}
  - component: {fileID: 3514840132420956030}
  m_Layer: 0
  m_Name: CutsceneManager
  m_TagString: Untagged
  m_Icon: {fileID: 0}
  m_NavMeshLayer: 0
  m_StaticEditorFlags: 0
  m_IsActive: 1
--- !u!4 &3514840132420956031
Transform:
  m_ObjectHideFlags: 0
  m_CorrespondingSourceObject: {fileID: 0}
  m_PrefabInstance: {fileID: 0}
  m_PrefabAsset: {fileID: 0}
  m_GameObject: {fileID: 3514840132420956017}
  m_LocalRotation: {x: 0, y: 0, z: 0, w: 1}
  m_LocalPosition: {x: 154, y: 10, z: -2.7276714}
  m_LocalScale: {x: 1, y: 1, z: 1}
  m_Children: []
  m_Father: {fileID: 0}
  m_RootOrder: 0
  m_LocalEulerAnglesHint: {x: 0, y: 0, z: 0}
--- !u!114 &3514840132420956030
MonoBehaviour:
  m_ObjectHideFlags: 0
  m_CorrespondingSourceObject: {fileID: 0}
  m_PrefabInstance: {fileID: 0}
  m_PrefabAsset: {fileID: 0}
  m_GameObject: {fileID: 3514840132420956017}
  m_Enabled: 1
  m_EditorHideFlags: 0
  m_Script: {fileID: 11500000, guid: 92cfda1089623ac40b4c14fd8bad533d, type: 3}
  m_Name: 
  m_EditorClassIdentifier: 
  area1: {fileID: 0}
  area2: {fileID: 0}
  dialogue0: {fileID: 0}
  dialogue1: {fileID: 0}
  dialogue2: {fileID: 0}
  bottomStripe: {fileID: 0}
  topStripe: {fileID: 0}
  screenMask: {fileID: 0}
  startMask: {fileID: 0}
