%YAML 1.1
%TAG !u! tag:unity3d.com,2011:
--- !u!1 &8444602317494675467
GameObject:
  m_ObjectHideFlags: 0
  m_CorrespondingSourceObject: {fileID: 0}
  m_PrefabInstance: {fileID: 0}
  m_PrefabAsset: {fileID: 0}
  serializedVersion: 6
  m_Component:
  - component: {fileID: 8444602317494675465}
  - component: {fileID: 8444602317494675464}
  m_Layer: 0
  m_Name: DialogueManager
  m_TagString: Untagged
  m_Icon: {fileID: 0}
  m_NavMeshLayer: 0
  m_StaticEditorFlags: 0
  m_IsActive: 1
--- !u!4 &8444602317494675465
Transform:
  m_ObjectHideFlags: 0
  m_CorrespondingSourceObject: {fileID: 0}
  m_PrefabInstance: {fileID: 0}
  m_PrefabAsset: {fileID: 0}
  m_GameObject: {fileID: 8444602317494675467}
  m_LocalRotation: {x: 0, y: 0, z: 0, w: 1}
  m_LocalPosition: {x: 167.28148, y: 151.7345, z: -0.6784303}
  m_LocalScale: {x: 1, y: 1, z: 1}
  m_Children: []
  m_Father: {fileID: 0}
  m_RootOrder: 0
  m_LocalEulerAnglesHint: {x: 0, y: 0, z: 0}
--- !u!114 &8444602317494675464
MonoBehaviour:
  m_ObjectHideFlags: 0
  m_CorrespondingSourceObject: {fileID: 0}
  m_PrefabInstance: {fileID: 0}
  m_PrefabAsset: {fileID: 0}
  m_GameObject: {fileID: 8444602317494675467}
  m_Enabled: 1
  m_EditorHideFlags: 0
  m_Script: {fileID: 11500000, guid: b70fa4fe6dc0cb546b3507da9144ff40, type: 3}
  m_Name: 
  m_EditorClassIdentifier: 
  nameText: {fileID: 0}
  dialogueText: {fileID: 0}
  buttonText: {fileID: 0}
  dialogueBoxAnimator: {fileID: 0}
  normalTypingSpeed: 0.05
  startTypingSpeed: 0.05
  startDialogueText: {fileID: 0}
  startButtonText: {fileID: 0}
  startText: {fileID: 0}
  startButtom: {fileID: 0}
