%YAML 1.1
%TAG !u! tag:unity3d.com,2011:
--- !u!74 &7400000
AnimationClip:
  m_ObjectHideFlags: 0
  m_CorrespondingSourceObject: {fileID: 0}
  m_PrefabInstance: {fileID: 0}
  m_PrefabAsset: {fileID: 0}
  m_Name: RicTrans
  serializedVersion: 6
  m_Legacy: 0
  m_Compressed: 0
  m_UseHighQualityCurve: 1
  m_RotationCurves: []
  m_CompressedRotationCurves: []
  m_EulerCurves: []
  m_PositionCurves:
  - curve:
      serializedVersion: 2
      m_Curve:
      - serializedVersion: 3
        time: 0
        value: {x: 542.4, y: 3.13, z: 0}
        inSlope: {x: 0, y: 0, z: 0}
        outSlope: {x: 0, y: 0, z: 0}
        tangentMode: 0
        weightedMode: 0
        inWeight: {x: 0, y: 0, z: 0}
        outWeight: {x: 0, y: 0, z: 0}
      - serializedVersion: 3
        time: 2.0833333
        value: {x: 542.4, y: 3.13, z: 0}
        inSlope: {x: -0.0028211803, y: 0.035555523, z: 0}
        outSlope: {x: -0.0028211803, y: 0.035555523, z: 0}
        tangentMode: 0
        weightedMode: 0
        inWeight: {x: 0.33333334, y: 0.33333334, z: 0.33333334}
        outWeight: {x: 0.33333334, y: 0.33333334, z: 0.33333334}
      - serializedVersion: 3
        time: 2.1666667
        value: {x: 542.4, y: 3.13, z: 0}
        inSlope: {x: -0.00952148, y: 0.6599991, z: 0}
        outSlope: {x: -0.00952148, y: 0.6599991, z: 0}
        tangentMode: 0
        weightedMode: 0
        inWeight: {x: 0.33333334, y: 0.33333334, z: 0.33333334}
        outWeight: {x: 0.33333334, y: 0.33333334, z: 0.33333334}
      - serializedVersion: 3
        time: 2.25
        value: {x: 542.3, y: 3.24, z: 0}
        inSlope: {x: 0, y: 0, z: 0}
        outSlope: {x: 0, y: 0, z: 0}
        tangentMode: 0
        weightedMode: 0
        inWeight: {x: 0.33333334, y: 0.33333334, z: 0.33333334}
        outWeight: {x: 0.33333334, y: 0.33333334, z: 0.33333334}
      - serializedVersion: 3
        time: 2.3333333
        value: {x: 542.15, y: 3.45, z: 0}
        inSlope: {x: 0, y: 0, z: 0}
        outSlope: {x: 0, y: 0, z: 0}
        tangentMode: 0
        weightedMode: 0
        inWeight: {x: 0.33333334, y: 0.33333334, z: 0.33333334}
        outWeight: {x: 0.33333334, y: 0.33333334, z: 0.33333334}
      - serializedVersion: 3
        time: 2.4166667
        value: {x: 541.85, y: 3.6, z: 0}
        inSlope: {x: 0, y: 0, z: 0}
        outSlope: {x: 0, y: 0, z: 0}
        tangentMode: 0
        weightedMode: 0
        inWeight: {x: 0.33333334, y: 0.33333334, z: 0.33333334}
        outWeight: {x: 0.33333334, y: 0.33333334, z: 0.33333334}
      - serializedVersion: 3
        time: 2.75
        value: {x: 541.4, y: 2.5, z: 0}
        inSlope: {x: -1.5600586, y: -10.84, z: 0}
        outSlope: {x: -1.5600586, y: -10.84, z: 0}
        tangentMode: 0
        weightedMode: 0
        inWeight: {x: 0.33333334, y: 0.33333334, z: 0.33333334}
        outWeight: {x: 0.33333334, y: 0.33333334, z: 0.33333334}
      - serializedVersion: 3
        time: 3.0833333
        value: {x: 540.76, y: -1.77, z: 0}
        inSlope: {x: 0, y: 0, z: 0}
        outSlope: {x: 0, y: 0, z: 0}
        tangentMode: 0
        weightedMode: 0
        inWeight: {x: 0.33333334, y: 0.33333334, z: 0.33333334}
        outWeight: {x: 0.33333334, y: 0.33333334, z: 0.33333334}
      - serializedVersion: 3
        time: 3.1666667
        value: {x: 540.73, y: -1.89, z: 0}
        inSlope: {x: 0, y: 0, z: 0}
        outSlope: {x: 0, y: 0, z: 0}
        tangentMode: 0
        weightedMode: 0
        inWeight: {x: 0.33333334, y: 0.33333334, z: 0.33333334}
        outWeight: {x: 0.33333334, y: 0.33333334, z: 0.33333334}
      - serializedVersion: 3
        time: 3.25
        value: {x: 540.76, y: -1.86, z: 0}
        inSlope: {x: 0, y: 0, z: 0}
        outSlope: {x: 0, y: 0, z: 0}
        tangentMode: 0
        weightedMode: 0
        inWeight: {x: 0.33333334, y: 0.33333334, z: 0.33333334}
        outWeight: {x: 0.33333334, y: 0.33333334, z: 0.33333334}
      m_PreInfinity: 2
      m_PostInfinity: 2
      m_RotationOrder: 4
    path: 
  m_ScaleCurves: []
  m_FloatCurves: []
  m_PPtrCurves:
  - curve:
    - time: 0
      value: {fileID: 21300000, guid: 6778f0be839613f45868535fb1138dee, type: 3}
    - time: 0.083333336
      value: {fileID: 21300002, guid: 6778f0be839613f45868535fb1138dee, type: 3}
    - time: 0.16666667
      value: {fileID: 21300004, guid: 6778f0be839613f45868535fb1138dee, type: 3}
    - time: 0.25
      value: {fileID: 21300006, guid: 6778f0be839613f45868535fb1138dee, type: 3}
    - time: 0.33333334
      value: {fileID: 21300008, guid: 6778f0be839613f45868535fb1138dee, type: 3}
    - time: 0.41666666
      value: {fileID: 21300010, guid: 6778f0be839613f45868535fb1138dee, type: 3}
    - time: 0.5
      value: {fileID: 21300012, guid: 6778f0be839613f45868535fb1138dee, type: 3}
    - time: 0.5833333
      value: {fileID: 21300002, guid: 6778f0be839613f45868535fb1138dee, type: 3}
    - time: 0.6666667
      value: {fileID: 21300004, guid: 6778f0be839613f45868535fb1138dee, type: 3}
    - time: 0.75
      value: {fileID: 21300006, guid: 6778f0be839613f45868535fb1138dee, type: 3}
    - time: 0.8333333
      value: {fileID: 21300008, guid: 6778f0be839613f45868535fb1138dee, type: 3}
    - time: 0.9166667
      value: {fileID: 21300010, guid: 6778f0be839613f45868535fb1138dee, type: 3}
    - time: 1
      value: {fileID: 21300014, guid: 6778f0be839613f45868535fb1138dee, type: 3}
    - time: 1.0833334
      value: {fileID: 21300016, guid: 6778f0be839613f45868535fb1138dee, type: 3}
    - time: 1.1666666
      value: {fileID: 21300032, guid: 6778f0be839613f45868535fb1138dee, type: 3}
    - time: 1.25
      value: {fileID: 21300034, guid: 6778f0be839613f45868535fb1138dee, type: 3}
    - time: 1.3333334
      value: {fileID: 21300036, guid: 6778f0be839613f45868535fb1138dee, type: 3}
    - time: 1.4166666
      value: {fileID: 21300038, guid: 6778f0be839613f45868535fb1138dee, type: 3}
    - time: 1.5
      value: {fileID: 21300040, guid: 6778f0be839613f45868535fb1138dee, type: 3}
    - time: 1.5833334
      value: {fileID: 21300032, guid: 6778f0be839613f45868535fb1138dee, type: 3}
    - time: 1.6666666
      value: {fileID: 21300034, guid: 6778f0be839613f45868535fb1138dee, type: 3}
    - time: 1.75
      value: {fileID: 21300036, guid: 6778f0be839613f45868535fb1138dee, type: 3}
    - time: 1.8333334
      value: {fileID: 21300038, guid: 6778f0be839613f45868535fb1138dee, type: 3}
    - time: 1.9166666
      value: {fileID: 21300040, guid: 6778f0be839613f45868535fb1138dee, type: 3}
    - time: 2
      value: {fileID: 21300018, guid: 6778f0be839613f45868535fb1138dee, type: 3}
    - time: 2.0833333
      value: {fileID: 21300020, guid: 6778f0be839613f45868535fb1138dee, type: 3}
    - time: 2.25
      value: {fileID: 21300022, guid: 6778f0be839613f45868535fb1138dee, type: 3}
    - time: 2.3333333
      value: {fileID: 21300024, guid: 6778f0be839613f45868535fb1138dee, type: 3}
    - time: 2.4166667
      value: {fileID: 21300024, guid: 6778f0be839613f45868535fb1138dee, type: 3}
    - time: 3.0833333
      value: {fileID: 21300026, guid: 6778f0be839613f45868535fb1138dee, type: 3}
    - time: 3.1666667
      value: {fileID: 21300028, guid: 6778f0be839613f45868535fb1138dee, type: 3}
    - time: 3.25
      value: {fileID: 21300030, guid: 6778f0be839613f45868535fb1138dee, type: 3}
    attribute: m_Sprite
    path: 
    classID: 212
    script: {fileID: 0}
  m_SampleRate: 12
  m_WrapMode: 0
  m_Bounds:
    m_Center: {x: 0, y: 0, z: 0}
    m_Extent: {x: 0, y: 0, z: 0}
  m_ClipBindingConstant:
    genericBindings:
    - serializedVersion: 2
      path: 0
      attribute: 1
      script: {fileID: 0}
      typeID: 4
      customType: 0
      isPPtrCurve: 0
    - serializedVersion: 2
      path: 0
      attribute: 0
      script: {fileID: 0}
      typeID: 212
      customType: 23
      isPPtrCurve: 1
    pptrCurveMapping:
    - {fileID: 21300000, guid: 6778f0be839613f45868535fb1138dee, type: 3}
    - {fileID: 21300002, guid: 6778f0be839613f45868535fb1138dee, type: 3}
    - {fileID: 21300004, guid: 6778f0be839613f45868535fb1138dee, type: 3}
    - {fileID: 21300006, guid: 6778f0be839613f45868535fb1138dee, type: 3}
    - {fileID: 21300008, guid: 6778f0be839613f45868535fb1138dee, type: 3}
    - {fileID: 21300010, guid: 6778f0be839613f45868535fb1138dee, type: 3}
    - {fileID: 21300012, guid: 6778f0be839613f45868535fb1138dee, type: 3}
    - {fileID: 21300002, guid: 6778f0be839613f45868535fb1138dee, type: 3}
    - {fileID: 21300004, guid: 6778f0be839613f45868535fb1138dee, type: 3}
    - {fileID: 21300006, guid: 6778f0be839613f45868535fb1138dee, type: 3}
    - {fileID: 21300008, guid: 6778f0be839613f45868535fb1138dee, type: 3}
    - {fileID: 21300010, guid: 6778f0be839613f45868535fb1138dee, type: 3}
    - {fileID: 21300014, guid: 6778f0be839613f45868535fb1138dee, type: 3}
    - {fileID: 21300016, guid: 6778f0be839613f45868535fb1138dee, type: 3}
    - {fileID: 21300032, guid: 6778f0be839613f45868535fb1138dee, type: 3}
    - {fileID: 21300034, guid: 6778f0be839613f45868535fb1138dee, type: 3}
    - {fileID: 21300036, guid: 6778f0be839613f45868535fb1138dee, type: 3}
    - {fileID: 21300038, guid: 6778f0be839613f45868535fb1138dee, type: 3}
    - {fileID: 21300040, guid: 6778f0be839613f45868535fb1138dee, type: 3}
    - {fileID: 21300032, guid: 6778f0be839613f45868535fb1138dee, type: 3}
    - {fileID: 21300034, guid: 6778f0be839613f45868535fb1138dee, type: 3}
    - {fileID: 21300036, guid: 6778f0be839613f45868535fb1138dee, type: 3}
    - {fileID: 21300038, guid: 6778f0be839613f45868535fb1138dee, type: 3}
    - {fileID: 21300040, guid: 6778f0be839613f45868535fb1138dee, type: 3}
    - {fileID: 21300018, guid: 6778f0be839613f45868535fb1138dee, type: 3}
    - {fileID: 21300020, guid: 6778f0be839613f45868535fb1138dee, type: 3}
    - {fileID: 21300022, guid: 6778f0be839613f45868535fb1138dee, type: 3}
    - {fileID: 21300024, guid: 6778f0be839613f45868535fb1138dee, type: 3}
    - {fileID: 21300024, guid: 6778f0be839613f45868535fb1138dee, type: 3}
    - {fileID: 21300026, guid: 6778f0be839613f45868535fb1138dee, type: 3}
    - {fileID: 21300028, guid: 6778f0be839613f45868535fb1138dee, type: 3}
    - {fileID: 21300030, guid: 6778f0be839613f45868535fb1138dee, type: 3}
  m_AnimationClipSettings:
    serializedVersion: 2
    m_AdditiveReferencePoseClip: {fileID: 0}
    m_AdditiveReferencePoseTime: 0
    m_StartTime: 0
    m_StopTime: 3.3333333
    m_OrientationOffsetY: 0
    m_Level: 0
    m_CycleOffset: 0
    m_HasAdditiveReferencePose: 0
    m_LoopTime: 0
    m_LoopBlend: 0
    m_LoopBlendOrientation: 0
    m_LoopBlendPositionY: 0
    m_LoopBlendPositionXZ: 0
    m_KeepOriginalOrientation: 0
    m_KeepOriginalPositionY: 1
    m_KeepOriginalPositionXZ: 0
    m_HeightFromFeet: 0
    m_Mirror: 0
  m_EditorCurves:
  - curve:
      serializedVersion: 2
      m_Curve:
      - serializedVersion: 3
        time: 0
        value: 542.4
        inSlope: 0
        outSlope: 0
        tangentMode: 136
        weightedMode: 0
        inWeight: 0
        outWeight: 0
      - serializedVersion: 3
        time: 2.0833333
        value: 542.4
        inSlope: -0.0028211803
        outSlope: -0.0028211803
        tangentMode: 136
        weightedMode: 0
        inWeight: 0.33333334
        outWeight: 0.33333334
      - serializedVersion: 3
        time: 2.1666667
        value: 542.4
        inSlope: -0.00952148
        outSlope: -0.00952148
        tangentMode: 136
        weightedMode: 0
        inWeight: 0.33333334
        outWeight: 0.33333334
      - serializedVersion: 3
        time: 2.25
        value: 542.3
        inSlope: 0
        outSlope: 0
        tangentMode: 136
        weightedMode: 0
        inWeight: 0.33333334
        outWeight: 0.33333334
      - serializedVersion: 3
        time: 2.3333333
        value: 542.15
        inSlope: 0
        outSlope: 0
        tangentMode: 136
        weightedMode: 0
        inWeight: 0.33333334
        outWeight: 0.33333334
      - serializedVersion: 3
        time: 2.4166667
        value: 541.85
        inSlope: 0
        outSlope: 0
        tangentMode: 136
        weightedMode: 0
        inWeight: 0.33333334
        outWeight: 0.33333334
      - serializedVersion: 3
        time: 2.75
        value: 541.4
        inSlope: -1.5600586
        outSlope: -1.5600586
        tangentMode: 136
        weightedMode: 0
        inWeight: 0.33333334
        outWeight: 0.33333334
      - serializedVersion: 3
        time: 3.0833333
        value: 540.76
        inSlope: 0
        outSlope: 0
        tangentMode: 136
        weightedMode: 0
        inWeight: 0.33333334
        outWeight: 0.33333334
      - serializedVersion: 3
        time: 3.1666667
        value: 540.73
        inSlope: 0
        outSlope: 0
        tangentMode: 136
        weightedMode: 0
        inWeight: 0.33333334
        outWeight: 0.33333334
      - serializedVersion: 3
        time: 3.25
        value: 540.76
        inSlope: 0
        outSlope: 0
        tangentMode: 136
        weightedMode: 0
        inWeight: 0.33333334
        outWeight: 0.33333334
      m_PreInfinity: 2
      m_PostInfinity: 2
      m_RotationOrder: 4
    attribute: m_LocalPosition.x
    path: 
    classID: 4
    script: {fileID: 0}
  - curve:
      serializedVersion: 2
      m_Curve:
      - serializedVersion: 3
        time: 0
        value: 3.13
        inSlope: 0
        outSlope: 0
        tangentMode: 136
        weightedMode: 0
        inWeight: 0
        outWeight: 0
      - serializedVersion: 3
        time: 2.0833333
        value: 3.13
        inSlope: 0.035555523
        outSlope: 0.035555523
        tangentMode: 136
        weightedMode: 0
        inWeight: 0.33333334
        outWeight: 0.33333334
      - serializedVersion: 3
        time: 2.1666667
        value: 3.13
        inSlope: 0.6599991
        outSlope: 0.6599991
        tangentMode: 136
        weightedMode: 0
        inWeight: 0.33333334
        outWeight: 0.33333334
      - serializedVersion: 3
        time: 2.25
        value: 3.24
        inSlope: 0
        outSlope: 0
        tangentMode: 136
        weightedMode: 0
        inWeight: 0.33333334
        outWeight: 0.33333334
      - serializedVersion: 3
        time: 2.3333333
        value: 3.45
        inSlope: 0
        outSlope: 0
        tangentMode: 136
        weightedMode: 0
        inWeight: 0.33333334
        outWeight: 0.33333334
      - serializedVersion: 3
        time: 2.4166667
        value: 3.6
        inSlope: 0
        outSlope: 0
        tangentMode: 136
        weightedMode: 0
        inWeight: 0.33333334
        outWeight: 0.33333334
      - serializedVersion: 3
        time: 2.75
        value: 2.5
        inSlope: -10.84
        outSlope: -10.84
        tangentMode: 136
        weightedMode: 0
        inWeight: 0.33333334
        outWeight: 0.33333334
      - serializedVersion: 3
        time: 3.0833333
        value: -1.77
        inSlope: 0
        outSlope: 0
        tangentMode: 136
        weightedMode: 0
        inWeight: 0.33333334
        outWeight: 0.33333334
      - serializedVersion: 3
        time: 3.1666667
        value: -1.89
        inSlope: 0
        outSlope: 0
        tangentMode: 136
        weightedMode: 0
        inWeight: 0.33333334
        outWeight: 0.33333334
      - serializedVersion: 3
        time: 3.25
        value: -1.86
        inSlope: 0
        outSlope: 0
        tangentMode: 136
        weightedMode: 0
        inWeight: 0.33333334
        outWeight: 0.33333334
      m_PreInfinity: 2
      m_PostInfinity: 2
      m_RotationOrder: 4
    attribute: m_LocalPosition.y
    path: 
    classID: 4
    script: {fileID: 0}
  - curve:
      serializedVersion: 2
      m_Curve:
      - serializedVersion: 3
        time: 0
        value: 0
        inSlope: 0
        outSlope: 0
        tangentMode: 136
        weightedMode: 0
        inWeight: 0
        outWeight: 0
      - serializedVersion: 3
        time: 2.0833333
        value: 0
        inSlope: 0
        outSlope: 0
        tangentMode: 136
        weightedMode: 0
        inWeight: 0.33333334
        outWeight: 0.33333334
      - serializedVersion: 3
        time: 2.1666667
        value: 0
        inSlope: 0
        outSlope: 0
        tangentMode: 136
        weightedMode: 0
        inWeight: 0.33333334
        outWeight: 0.33333334
      - serializedVersion: 3
        time: 2.25
        value: 0
        inSlope: 0
        outSlope: 0
        tangentMode: 136
        weightedMode: 0
        inWeight: 0.33333334
        outWeight: 0.33333334
      - serializedVersion: 3
        time: 2.3333333
        value: 0
        inSlope: 0
        outSlope: 0
        tangentMode: 136
        weightedMode: 0
        inWeight: 0.33333334
        outWeight: 0.33333334
      - serializedVersion: 3
        time: 2.4166667
        value: 0
        inSlope: 0
        outSlope: 0
        tangentMode: 136
        weightedMode: 0
        inWeight: 0.33333334
        outWeight: 0.33333334
      - serializedVersion: 3
        time: 2.75
        value: 0
        inSlope: 0
        outSlope: 0
        tangentMode: 136
        weightedMode: 0
        inWeight: 0.33333334
        outWeight: 0.33333334
      - serializedVersion: 3
        time: 3.0833333
        value: 0
        inSlope: 0
        outSlope: 0
        tangentMode: 136
        weightedMode: 0
        inWeight: 0.33333334
        outWeight: 0.33333334
      - serializedVersion: 3
        time: 3.1666667
        value: 0
        inSlope: 0
        outSlope: 0
        tangentMode: 136
        weightedMode: 0
        inWeight: 0.33333334
        outWeight: 0.33333334
      - serializedVersion: 3
        time: 3.25
        value: 0
        inSlope: 0
        outSlope: 0
        tangentMode: 136
        weightedMode: 0
        inWeight: 0.33333334
        outWeight: 0.33333334
      m_PreInfinity: 2
      m_PostInfinity: 2
      m_RotationOrder: 4
    attribute: m_LocalPosition.z
    path: 
    classID: 4
    script: {fileID: 0}
  m_EulerEditorCurves: []
  m_HasGenericRootTransform: 1
  m_HasMotionFloatCurves: 0
  m_Events: []
