%YAML 1.1
%TAG !u! tag:unity3d.com,2011:
--- !u!1001 &2822728803098673233
PrefabInstance:
  m_ObjectHideFlags: 0
  serializedVersion: 2
  m_Modification:
    m_TransformParent: {fileID: 0}
    m_Modifications:
    - target: {fileID: 6918525176431104897, guid: 339d950c45a4dac46bb7ef7ade03fb56,
        type: 3}
      propertyPath: m_Name
      value: Flying Enemy (2) Variant
      objectReference: {fileID: 0}
    - target: {fileID: 3802863868519364370, guid: 339d950c45a4dac46bb7ef7ade03fb56,
        type: 3}
      propertyPath: m_LocalPosition.x
      value: 896
      objectReference: {fileID: 0}
    - target: {fileID: 3802863868519364370, guid: 339d950c45a4dac46bb7ef7ade03fb56,
        type: 3}
      propertyPath: m_LocalPosition.y
      value: 78.5
      objectReference: {fileID: 0}
    - target: {fileID: 3802863868519364370, guid: 339d950c45a4dac46bb7ef7ade03fb56,
        type: 3}
      propertyPath: m_LocalPosition.z
      value: 0
      objectReference: {fileID: 0}
    - target: {fileID: 3802863868519364370, guid: 339d950c45a4dac46bb7ef7ade03fb56,
        type: 3}
      propertyPath: m_LocalRotation.x
      value: -0
      objectReference: {fileID: 0}
    - target: {fileID: 3802863868519364370, guid: 339d950c45a4dac46bb7ef7ade03fb56,
        type: 3}
      propertyPath: m_LocalRotation.y
      value: -0
      objectReference: {fileID: 0}
    - target: {fileID: 3802863868519364370, guid: 339d950c45a4dac46bb7ef7ade03fb56,
        type: 3}
      propertyPath: m_LocalRotation.z
      value: -0
      objectReference: {fileID: 0}
    - target: {fileID: 3802863868519364370, guid: 339d950c45a4dac46bb7ef7ade03fb56,
        type: 3}
      propertyPath: m_LocalRotation.w
      value: 1
      objectReference: {fileID: 0}
    - target: {fileID: 3802863868519364370, guid: 339d950c45a4dac46bb7ef7ade03fb56,
        type: 3}
      propertyPath: m_RootOrder
      value: 0
      objectReference: {fileID: 0}
    - target: {fileID: 3802863868519364370, guid: 339d950c45a4dac46bb7ef7ade03fb56,
        type: 3}
      propertyPath: m_LocalEulerAnglesHint.x
      value: 0
      objectReference: {fileID: 0}
    - target: {fileID: 3802863868519364370, guid: 339d950c45a4dac46bb7ef7ade03fb56,
        type: 3}
      propertyPath: m_LocalEulerAnglesHint.y
      value: 0
      objectReference: {fileID: 0}
    - target: {fileID: 3802863868519364370, guid: 339d950c45a4dac46bb7ef7ade03fb56,
        type: 3}
      propertyPath: m_LocalEulerAnglesHint.z
      value: 0
      objectReference: {fileID: 0}
    - target: {fileID: 3802863868519364370, guid: 339d950c45a4dac46bb7ef7ade03fb56,
        type: 3}
      propertyPath: m_LocalScale.x
      value: 1.5
      objectReference: {fileID: 0}
    - target: {fileID: 3802863868519364370, guid: 339d950c45a4dac46bb7ef7ade03fb56,
        type: 3}
      propertyPath: m_LocalScale.y
      value: 1.5
      objectReference: {fileID: 0}
    - target: {fileID: 4575900736330701869, guid: 339d950c45a4dac46bb7ef7ade03fb56,
        type: 3}
      propertyPath: maxSpeedX
      value: 3
      objectReference: {fileID: 0}
    - target: {fileID: 4575900736330701869, guid: 339d950c45a4dac46bb7ef7ade03fb56,
        type: 3}
      propertyPath: maxSpeedY
      value: 3
      objectReference: {fileID: 0}
    - target: {fileID: 4575900736330701869, guid: 339d950c45a4dac46bb7ef7ade03fb56,
        type: 3}
      propertyPath: negativeY
      value: 1.5
      objectReference: {fileID: 0}
    - target: {fileID: 4575900736330701869, guid: 339d950c45a4dac46bb7ef7ade03fb56,
        type: 3}
      propertyPath: health
      value: 200
      objectReference: {fileID: 0}
    m_RemovedComponents: []
  m_SourcePrefab: {fileID: 100100000, guid: 339d950c45a4dac46bb7ef7ade03fb56, type: 3}
