%YAML 1.1
%TAG !u! tag:unity3d.com,2011:
--- !u!1001 &4233020708120207388
PrefabInstance:
  m_ObjectHideFlags: 0
  serializedVersion: 2
  m_Modification:
    m_TransformParent: {fileID: 0}
    m_Modifications:
    - target: {fileID: 9080028985124839482, guid: 096c2c81979c8dd4297e66617c41cb6d,
        type: 3}
      propertyPath: m_Name
      value: Enemy1 (1) Variant
      objectReference: {fileID: 0}
    - target: {fileID: 9080028985124839456, guid: 096c2c81979c8dd4297e66617c41cb6d,
        type: 3}
      propertyPath: m_LocalPosition.x
      value: 465.8226
      objectReference: {fileID: 0}
    - target: {fileID: 9080028985124839456, guid: 096c2c81979c8dd4297e66617c41cb6d,
        type: 3}
      propertyPath: m_LocalPosition.y
      value: -3.25
      objectReference: {fileID: 0}
    - target: {fileID: 9080028985124839456, guid: 096c2c81979c8dd4297e66617c41cb6d,
        type: 3}
      propertyPath: m_LocalPosition.z
      value: 0
      objectReference: {fileID: 0}
    - target: {fileID: 9080028985124839456, guid: 096c2c81979c8dd4297e66617c41cb6d,
        type: 3}
      propertyPath: m_LocalRotation.x
      value: -0
      objectReference: {fileID: 0}
    - target: {fileID: 9080028985124839456, guid: 096c2c81979c8dd4297e66617c41cb6d,
        type: 3}
      propertyPath: m_LocalRotation.y
      value: -0
      objectReference: {fileID: 0}
    - target: {fileID: 9080028985124839456, guid: 096c2c81979c8dd4297e66617c41cb6d,
        type: 3}
      propertyPath: m_LocalRotation.z
      value: -0
      objectReference: {fileID: 0}
    - target: {fileID: 9080028985124839456, guid: 096c2c81979c8dd4297e66617c41cb6d,
        type: 3}
      propertyPath: m_LocalRotation.w
      value: 1
      objectReference: {fileID: 0}
    - target: {fileID: 9080028985124839456, guid: 096c2c81979c8dd4297e66617c41cb6d,
        type: 3}
      propertyPath: m_RootOrder
      value: 0
      objectReference: {fileID: 0}
    - target: {fileID: 9080028985124839456, guid: 096c2c81979c8dd4297e66617c41cb6d,
        type: 3}
      propertyPath: m_LocalEulerAnglesHint.x
      value: 0
      objectReference: {fileID: 0}
    - target: {fileID: 9080028985124839456, guid: 096c2c81979c8dd4297e66617c41cb6d,
        type: 3}
      propertyPath: m_LocalEulerAnglesHint.y
      value: 0
      objectReference: {fileID: 0}
    - target: {fileID: 9080028985124839456, guid: 096c2c81979c8dd4297e66617c41cb6d,
        type: 3}
      propertyPath: m_LocalEulerAnglesHint.z
      value: 0
      objectReference: {fileID: 0}
    - target: {fileID: 9080028985124839456, guid: 096c2c81979c8dd4297e66617c41cb6d,
        type: 3}
      propertyPath: m_LocalScale.y
      value: 1.5
      objectReference: {fileID: 0}
    m_RemovedComponents: []
  m_SourcePrefab: {fileID: 100100000, guid: 096c2c81979c8dd4297e66617c41cb6d, type: 3}
