%YAML 1.1
%TAG !u! tag:unity3d.com,2011:
--- !u!1001 &716885085095240810
PrefabInstance:
  m_ObjectHideFlags: 0
  serializedVersion: 2
  m_Modification:
    m_TransformParent: {fileID: 0}
    m_Modifications:
    - target: {fileID: 3572507023547873162, guid: acbc787b126c98942ac9c149ac0287ba,
        type: 3}
      propertyPath: m_Name
      value: BulletParticles(cannon) Variant
      objectReference: {fileID: 0}
    - target: {fileID: 3572507023547873175, guid: acbc787b126c98942ac9c149ac0287ba,
        type: 3}
      propertyPath: m_LocalPosition.x
      value: 163.77336
      objectReference: {fileID: 0}
    - target: {fileID: 3572507023547873175, guid: acbc787b126c98942ac9c149ac0287ba,
        type: 3}
      propertyPath: m_LocalPosition.y
      value: 17.102337
      objectReference: {fileID: 0}
    - target: {fileID: 3572507023547873175, guid: acbc787b126c98942ac9c149ac0287ba,
        type: 3}
      propertyPath: m_LocalPosition.z
      value: -1
      objectReference: {fileID: 0}
    - target: {fileID: 3572507023547873175, guid: acbc787b126c98942ac9c149ac0287ba,
        type: 3}
      propertyPath: m_LocalRotation.x
      value: 0
      objectReference: {fileID: 0}
    - target: {fileID: 3572507023547873175, guid: acbc787b126c98942ac9c149ac0287ba,
        type: 3}
      propertyPath: m_LocalRotation.y
      value: 0
      objectReference: {fileID: 0}
    - target: {fileID: 3572507023547873175, guid: acbc787b126c98942ac9c149ac0287ba,
        type: 3}
      propertyPath: m_LocalRotation.z
      value: 0
      objectReference: {fileID: 0}
    - target: {fileID: 3572507023547873175, guid: acbc787b126c98942ac9c149ac0287ba,
        type: 3}
      propertyPath: m_LocalRotation.w
      value: 1
      objectReference: {fileID: 0}
    - target: {fileID: 3572507023547873175, guid: acbc787b126c98942ac9c149ac0287ba,
        type: 3}
      propertyPath: m_RootOrder
      value: 0
      objectReference: {fileID: 0}
    - target: {fileID: 3572507023547873175, guid: acbc787b126c98942ac9c149ac0287ba,
        type: 3}
      propertyPath: m_LocalEulerAnglesHint.x
      value: 0
      objectReference: {fileID: 0}
    - target: {fileID: 3572507023547873175, guid: acbc787b126c98942ac9c149ac0287ba,
        type: 3}
      propertyPath: m_LocalEulerAnglesHint.y
      value: 0
      objectReference: {fileID: 0}
    - target: {fileID: 3572507023547873175, guid: acbc787b126c98942ac9c149ac0287ba,
        type: 3}
      propertyPath: m_LocalEulerAnglesHint.z
      value: 0
      objectReference: {fileID: 0}
    - target: {fileID: 3572507023547873172, guid: acbc787b126c98942ac9c149ac0287ba,
        type: 3}
      propertyPath: InitialModule.startColor.maxColor.g
      value: 0.08627451
      objectReference: {fileID: 0}
    - target: {fileID: 3572507023547873172, guid: acbc787b126c98942ac9c149ac0287ba,
        type: 3}
      propertyPath: InitialModule.startColor.maxColor.b
      value: 0.03529412
      objectReference: {fileID: 0}
    - target: {fileID: 3572507023547873172, guid: acbc787b126c98942ac9c149ac0287ba,
        type: 3}
      propertyPath: LightsModule.light
      value: 
      objectReference: {fileID: 9026407665741734324, guid: 400d40b3e0c536d46b5f5479007b2523,
        type: 3}
    m_RemovedComponents: []
  m_SourcePrefab: {fileID: 100100000, guid: acbc787b126c98942ac9c149ac0287ba, type: 3}
