%YAML 1.1
%TAG !u! tag:unity3d.com,2011:
--- !u!1045 &1
EditorBuildSettings:
  m_ObjectHideFlags: 0
  serializedVersion: 2
  m_Scenes:
  - enabled: 0
    path: 
    guid: 00000000000000000000000000000000
  - enabled: 1
    path: Assets/Scenes/StartMenu.unity
    guid: 3b85ec866a007e8459721bf4adc489d1
  - enabled: 0
    path: 
    guid: 00000000000000000000000000000000
  - enabled: 1
    path: Assets/Scenes/F1.unity
    guid: a670b1938fcc3544387fa4503daef32e
  - enabled: 1
    path: Assets/Scenes/F2.unity
    guid: b0d29267f7925fb469d8c6ed782babd9
  - enabled: 0
    path: 
    guid: 00000000000000000000000000000000
  - enabled: 0
    path: 
    guid: 00000000000000000000000000000000
  - enabled: 0
    path: 
    guid: 00000000000000000000000000000000
  - enabled: 0
    path: 
    guid: 00000000000000000000000000000000
  - enabled: 0
    path: 
    guid: 00000000000000000000000000000000
  - enabled: 1
    path: Assets/Scenes/EndMenu.unity
    guid: 12a056cb405d64345863d164f3eab13c
  m_configObjects: {}
