%YAML 1.1
%TAG !u! tag:unity3d.com,2011:
--- !u!114 &5639646744432434914
MonoBehaviour:
  m_ObjectHideFlags: 0
  m_CorrespondingSourceObject: {fileID: 0}
  m_PrefabInstance: {fileID: 0}
  m_PrefabAsset: {fileID: 0}
  m_GameObject: {fileID: 8126464678844751310}
  m_Enabled: 1
  m_EditorHideFlags: 0
  m_Script: {fileID: 11500000, guid: 338058df3f9ed7f47b261c7407cd33fb, type: 3}
  m_Name: 
  m_EditorClassIdentifier: 
  gateForEachRoom: 20
  isReturning: 0
  cameraShake:
  - {fileID: 0}
  - {fileID: 0}
  - {fileID: 0}
  - {fileID: 0}
  - {fileID: 0}
  - {fileID: 0}
  - {fileID: 0}
  - {fileID: 0}
  - {fileID: 0}
  - {fileID: 0}
  - {fileID: 0}
  - {fileID: 0}
  - {fileID: 0}
  - {fileID: 0}
  - {fileID: 0}
  - {fileID: 0}
  - {fileID: 0}
  - {fileID: 0}
  - {fileID: 0}
  - {fileID: 0}
  nextLevel: 0
--- !u!1001 &2617085274412896437
PrefabInstance:
  m_ObjectHideFlags: 0
  serializedVersion: 2
  m_Modification:
    m_TransformParent: {fileID: 0}
    m_Modifications:
    - target: {fileID: 6095272043966991739, guid: 8144b58b3f4e7284a9adf7eafaa027bc,
        type: 3}
      propertyPath: m_Name
      value: gate  Variant
      objectReference: {fileID: 0}
    - target: {fileID: 6095272043966991739, guid: 8144b58b3f4e7284a9adf7eafaa027bc,
        type: 3}
      propertyPath: m_Layer
      value: 18
      objectReference: {fileID: 0}
    - target: {fileID: 6095272043966991741, guid: 8144b58b3f4e7284a9adf7eafaa027bc,
        type: 3}
      propertyPath: m_LocalPosition.x
      value: -6.84
      objectReference: {fileID: 0}
    - target: {fileID: 6095272043966991741, guid: 8144b58b3f4e7284a9adf7eafaa027bc,
        type: 3}
      propertyPath: m_LocalPosition.y
      value: 6.82
      objectReference: {fileID: 0}
    - target: {fileID: 6095272043966991741, guid: 8144b58b3f4e7284a9adf7eafaa027bc,
        type: 3}
      propertyPath: m_LocalPosition.z
      value: -0.094401
      objectReference: {fileID: 0}
    - target: {fileID: 6095272043966991741, guid: 8144b58b3f4e7284a9adf7eafaa027bc,
        type: 3}
      propertyPath: m_LocalRotation.x
      value: 0
      objectReference: {fileID: 0}
    - target: {fileID: 6095272043966991741, guid: 8144b58b3f4e7284a9adf7eafaa027bc,
        type: 3}
      propertyPath: m_LocalRotation.y
      value: 0
      objectReference: {fileID: 0}
    - target: {fileID: 6095272043966991741, guid: 8144b58b3f4e7284a9adf7eafaa027bc,
        type: 3}
      propertyPath: m_LocalRotation.z
      value: 0
      objectReference: {fileID: 0}
    - target: {fileID: 6095272043966991741, guid: 8144b58b3f4e7284a9adf7eafaa027bc,
        type: 3}
      propertyPath: m_LocalRotation.w
      value: 1
      objectReference: {fileID: 0}
    - target: {fileID: 6095272043966991741, guid: 8144b58b3f4e7284a9adf7eafaa027bc,
        type: 3}
      propertyPath: m_RootOrder
      value: 0
      objectReference: {fileID: 0}
    - target: {fileID: 6095272043966991741, guid: 8144b58b3f4e7284a9adf7eafaa027bc,
        type: 3}
      propertyPath: m_LocalEulerAnglesHint.x
      value: 0
      objectReference: {fileID: 0}
    - target: {fileID: 6095272043966991741, guid: 8144b58b3f4e7284a9adf7eafaa027bc,
        type: 3}
      propertyPath: m_LocalEulerAnglesHint.y
      value: 0
      objectReference: {fileID: 0}
    - target: {fileID: 6095272043966991741, guid: 8144b58b3f4e7284a9adf7eafaa027bc,
        type: 3}
      propertyPath: m_LocalEulerAnglesHint.z
      value: 0
      objectReference: {fileID: 0}
    - target: {fileID: 6095272043966991738, guid: 8144b58b3f4e7284a9adf7eafaa027bc,
        type: 3}
      propertyPath: m_IsTrigger
      value: 1
      objectReference: {fileID: 0}
    - target: {fileID: 6095272043966991738, guid: 8144b58b3f4e7284a9adf7eafaa027bc,
        type: 3}
      propertyPath: m_Size.x
      value: 27.93
      objectReference: {fileID: 0}
    - target: {fileID: 6095272043966991738, guid: 8144b58b3f4e7284a9adf7eafaa027bc,
        type: 3}
      propertyPath: m_Size.y
      value: 15.67
      objectReference: {fileID: 0}
    m_RemovedComponents: []
  m_SourcePrefab: {fileID: 100100000, guid: 8144b58b3f4e7284a9adf7eafaa027bc, type: 3}
--- !u!1 &8126464678844751310 stripped
GameObject:
  m_CorrespondingSourceObject: {fileID: 6095272043966991739, guid: 8144b58b3f4e7284a9adf7eafaa027bc,
    type: 3}
  m_PrefabInstance: {fileID: 2617085274412896437}
  m_PrefabAsset: {fileID: 0}
