%YAML 1.1
%TAG !u! tag:unity3d.com,2011:
--- !u!1001 &1156909141625106243
PrefabInstance:
  m_ObjectHideFlags: 0
  serializedVersion: 2
  m_Modification:
    m_TransformParent: {fileID: 6969390245655688673}
    m_Modifications:
    - target: {fileID: 6867310651203525042, guid: 800a924b48728534c8db6c43ecc9225c,
        type: 3}
      propertyPath: m_Name
      value: Cristal 4
      objectReference: {fileID: 0}
    - target: {fileID: 5878471178790690289, guid: 800a924b48728534c8db6c43ecc9225c,
        type: 3}
      propertyPath: m_LocalPosition.x
      value: -0
      objectReference: {fileID: 0}
    - target: {fileID: 5878471178790690289, guid: 800a924b48728534c8db6c43ecc9225c,
        type: 3}
      propertyPath: m_LocalPosition.y
      value: -0.743
      objectReference: {fileID: 0}
    - target: {fileID: 5878471178790690289, guid: 800a924b48728534c8db6c43ecc9225c,
        type: 3}
      propertyPath: m_LocalPosition.z
      value: -1
      objectReference: {fileID: 0}
    - target: {fileID: 5878471178790690289, guid: 800a924b48728534c8db6c43ecc9225c,
        type: 3}
      propertyPath: m_LocalRotation.x
      value: -0
      objectReference: {fileID: 0}
    - target: {fileID: 5878471178790690289, guid: 800a924b48728534c8db6c43ecc9225c,
        type: 3}
      propertyPath: m_LocalRotation.y
      value: -0
      objectReference: {fileID: 0}
    - target: {fileID: 5878471178790690289, guid: 800a924b48728534c8db6c43ecc9225c,
        type: 3}
      propertyPath: m_LocalRotation.z
      value: -0
      objectReference: {fileID: 0}
    - target: {fileID: 5878471178790690289, guid: 800a924b48728534c8db6c43ecc9225c,
        type: 3}
      propertyPath: m_LocalRotation.w
      value: 1
      objectReference: {fileID: 0}
    - target: {fileID: 5878471178790690289, guid: 800a924b48728534c8db6c43ecc9225c,
        type: 3}
      propertyPath: m_RootOrder
      value: 5
      objectReference: {fileID: 0}
    - target: {fileID: 5878471178790690289, guid: 800a924b48728534c8db6c43ecc9225c,
        type: 3}
      propertyPath: m_LocalEulerAnglesHint.x
      value: 0
      objectReference: {fileID: 0}
    - target: {fileID: 5878471178790690289, guid: 800a924b48728534c8db6c43ecc9225c,
        type: 3}
      propertyPath: m_LocalEulerAnglesHint.y
      value: 0
      objectReference: {fileID: 0}
    - target: {fileID: 5878471178790690289, guid: 800a924b48728534c8db6c43ecc9225c,
        type: 3}
      propertyPath: m_LocalEulerAnglesHint.z
      value: 0
      objectReference: {fileID: 0}
    - target: {fileID: 5878471178790690289, guid: 800a924b48728534c8db6c43ecc9225c,
        type: 3}
      propertyPath: m_LocalScale.x
      value: 1
      objectReference: {fileID: 0}
    - target: {fileID: 5878471178790690289, guid: 800a924b48728534c8db6c43ecc9225c,
        type: 3}
      propertyPath: m_LocalScale.y
      value: 1
      objectReference: {fileID: 0}
    - target: {fileID: 3498110317674640936, guid: 800a924b48728534c8db6c43ecc9225c,
        type: 3}
      propertyPath: m_LocalPosition.z
      value: 0.9195
      objectReference: {fileID: 0}
    - target: {fileID: 3498110317674640936, guid: 800a924b48728534c8db6c43ecc9225c,
        type: 3}
      propertyPath: m_LocalScale.x
      value: 0.08047505
      objectReference: {fileID: 0}
    - target: {fileID: 3498110317674640936, guid: 800a924b48728534c8db6c43ecc9225c,
        type: 3}
      propertyPath: m_LocalScale.y
      value: 0.08047505
      objectReference: {fileID: 0}
    - target: {fileID: 3498110317674640936, guid: 800a924b48728534c8db6c43ecc9225c,
        type: 3}
      propertyPath: m_LocalScale.z
      value: 0.08047505
      objectReference: {fileID: 0}
    - target: {fileID: 7151123181311783526, guid: 800a924b48728534c8db6c43ecc9225c,
        type: 3}
      propertyPath: m_LocalScale.x
      value: 0.08047505
      objectReference: {fileID: 0}
    - target: {fileID: 7151123181311783526, guid: 800a924b48728534c8db6c43ecc9225c,
        type: 3}
      propertyPath: m_LocalScale.y
      value: 0.08047505
      objectReference: {fileID: 0}
    - target: {fileID: 7151123181311783526, guid: 800a924b48728534c8db6c43ecc9225c,
        type: 3}
      propertyPath: m_LocalScale.z
      value: 0.08047505
      objectReference: {fileID: 0}
    - target: {fileID: 751365905460922143, guid: 800a924b48728534c8db6c43ecc9225c,
        type: 3}
      propertyPath: m_Materials.Array.data[0]
      value: 
      objectReference: {fileID: 2100000, guid: 9bc0b6e325e1acf4d99763da41f23673, type: 2}
    m_RemovedComponents: []
  m_SourcePrefab: {fileID: 100100000, guid: 800a924b48728534c8db6c43ecc9225c, type: 3}
--- !u!1001 &3314672223795357025
PrefabInstance:
  m_ObjectHideFlags: 0
  serializedVersion: 2
  m_Modification:
    m_TransformParent: {fileID: 6969390245655688673}
    m_Modifications:
    - target: {fileID: 4798404419715461065, guid: 2ea69ad62ab049041970b2319baae0f7,
        type: 3}
      propertyPath: m_Name
      value: Cristal 2
      objectReference: {fileID: 0}
    - target: {fileID: 8734538326740355690, guid: 2ea69ad62ab049041970b2319baae0f7,
        type: 3}
      propertyPath: m_LocalPosition.x
      value: -0.204
      objectReference: {fileID: 0}
    - target: {fileID: 8734538326740355690, guid: 2ea69ad62ab049041970b2319baae0f7,
        type: 3}
      propertyPath: m_LocalPosition.y
      value: -0.74
      objectReference: {fileID: 0}
    - target: {fileID: 8734538326740355690, guid: 2ea69ad62ab049041970b2319baae0f7,
        type: 3}
      propertyPath: m_LocalPosition.z
      value: -1
      objectReference: {fileID: 0}
    - target: {fileID: 8734538326740355690, guid: 2ea69ad62ab049041970b2319baae0f7,
        type: 3}
      propertyPath: m_LocalRotation.x
      value: 0
      objectReference: {fileID: 0}
    - target: {fileID: 8734538326740355690, guid: 2ea69ad62ab049041970b2319baae0f7,
        type: 3}
      propertyPath: m_LocalRotation.y
      value: 0
      objectReference: {fileID: 0}
    - target: {fileID: 8734538326740355690, guid: 2ea69ad62ab049041970b2319baae0f7,
        type: 3}
      propertyPath: m_LocalRotation.z
      value: 0
      objectReference: {fileID: 0}
    - target: {fileID: 8734538326740355690, guid: 2ea69ad62ab049041970b2319baae0f7,
        type: 3}
      propertyPath: m_LocalRotation.w
      value: 1
      objectReference: {fileID: 0}
    - target: {fileID: 8734538326740355690, guid: 2ea69ad62ab049041970b2319baae0f7,
        type: 3}
      propertyPath: m_RootOrder
      value: 4
      objectReference: {fileID: 0}
    - target: {fileID: 8734538326740355690, guid: 2ea69ad62ab049041970b2319baae0f7,
        type: 3}
      propertyPath: m_LocalEulerAnglesHint.x
      value: 0
      objectReference: {fileID: 0}
    - target: {fileID: 8734538326740355690, guid: 2ea69ad62ab049041970b2319baae0f7,
        type: 3}
      propertyPath: m_LocalEulerAnglesHint.y
      value: 0
      objectReference: {fileID: 0}
    - target: {fileID: 8734538326740355690, guid: 2ea69ad62ab049041970b2319baae0f7,
        type: 3}
      propertyPath: m_LocalEulerAnglesHint.z
      value: 0
      objectReference: {fileID: 0}
    - target: {fileID: 8734538326740355690, guid: 2ea69ad62ab049041970b2319baae0f7,
        type: 3}
      propertyPath: m_LocalScale.x
      value: 1
      objectReference: {fileID: 0}
    - target: {fileID: 8734538326740355690, guid: 2ea69ad62ab049041970b2319baae0f7,
        type: 3}
      propertyPath: m_LocalScale.y
      value: 1
      objectReference: {fileID: 0}
    - target: {fileID: 8932798262109539902, guid: 2ea69ad62ab049041970b2319baae0f7,
        type: 3}
      propertyPath: m_LocalScale.x
      value: 0.084331095
      objectReference: {fileID: 0}
    - target: {fileID: 8932798262109539902, guid: 2ea69ad62ab049041970b2319baae0f7,
        type: 3}
      propertyPath: m_LocalScale.y
      value: 0.084331095
      objectReference: {fileID: 0}
    - target: {fileID: 8932798262109539902, guid: 2ea69ad62ab049041970b2319baae0f7,
        type: 3}
      propertyPath: m_LocalScale.z
      value: 0.084331095
      objectReference: {fileID: 0}
    - target: {fileID: 8932798262109539902, guid: 2ea69ad62ab049041970b2319baae0f7,
        type: 3}
      propertyPath: m_LocalPosition.x
      value: 0
      objectReference: {fileID: 0}
    - target: {fileID: 8932798262109539902, guid: 2ea69ad62ab049041970b2319baae0f7,
        type: 3}
      propertyPath: m_LocalPosition.y
      value: 0
      objectReference: {fileID: 0}
    - target: {fileID: 5494689255408971832, guid: 2ea69ad62ab049041970b2319baae0f7,
        type: 3}
      propertyPath: m_LocalPosition.z
      value: 0.9157
      objectReference: {fileID: 0}
    - target: {fileID: 5494689255408971832, guid: 2ea69ad62ab049041970b2319baae0f7,
        type: 3}
      propertyPath: m_LocalScale.x
      value: 0.084331095
      objectReference: {fileID: 0}
    - target: {fileID: 5494689255408971832, guid: 2ea69ad62ab049041970b2319baae0f7,
        type: 3}
      propertyPath: m_LocalScale.y
      value: 0.084331095
      objectReference: {fileID: 0}
    - target: {fileID: 5494689255408971832, guid: 2ea69ad62ab049041970b2319baae0f7,
        type: 3}
      propertyPath: m_LocalScale.z
      value: 0.084331095
      objectReference: {fileID: 0}
    - target: {fileID: 5494689255408971832, guid: 2ea69ad62ab049041970b2319baae0f7,
        type: 3}
      propertyPath: m_LocalPosition.x
      value: 0
      objectReference: {fileID: 0}
    - target: {fileID: 5494689255408971832, guid: 2ea69ad62ab049041970b2319baae0f7,
        type: 3}
      propertyPath: m_LocalPosition.y
      value: 0
      objectReference: {fileID: 0}
    - target: {fileID: 2468018258096554645, guid: 2ea69ad62ab049041970b2319baae0f7,
        type: 3}
      propertyPath: m_Materials.Array.data[0]
      value: 
      objectReference: {fileID: 2100000, guid: 9bc0b6e325e1acf4d99763da41f23673, type: 2}
    m_RemovedComponents: []
  m_SourcePrefab: {fileID: 100100000, guid: 2ea69ad62ab049041970b2319baae0f7, type: 3}
--- !u!1001 &3436469976470454267
PrefabInstance:
  m_ObjectHideFlags: 0
  serializedVersion: 2
  m_Modification:
    m_TransformParent: {fileID: 0}
    m_Modifications:
    - target: {fileID: 5695070818203191824, guid: 1ddcd40c1a5fbb347a9ceea1242830b6,
        type: 3}
      propertyPath: m_Name
      value: Enemy.1(F2)
      objectReference: {fileID: 0}
    - target: {fileID: 5695070818203191834, guid: 1ddcd40c1a5fbb347a9ceea1242830b6,
        type: 3}
      propertyPath: m_LocalPosition.x
      value: 539
      objectReference: {fileID: 0}
    - target: {fileID: 5695070818203191834, guid: 1ddcd40c1a5fbb347a9ceea1242830b6,
        type: 3}
      propertyPath: m_LocalPosition.y
      value: -1
      objectReference: {fileID: 0}
    - target: {fileID: 5695070818203191834, guid: 1ddcd40c1a5fbb347a9ceea1242830b6,
        type: 3}
      propertyPath: m_LocalPosition.z
      value: 0
      objectReference: {fileID: 0}
    - target: {fileID: 5695070818203191834, guid: 1ddcd40c1a5fbb347a9ceea1242830b6,
        type: 3}
      propertyPath: m_LocalRotation.x
      value: 0
      objectReference: {fileID: 0}
    - target: {fileID: 5695070818203191834, guid: 1ddcd40c1a5fbb347a9ceea1242830b6,
        type: 3}
      propertyPath: m_LocalRotation.y
      value: 0
      objectReference: {fileID: 0}
    - target: {fileID: 5695070818203191834, guid: 1ddcd40c1a5fbb347a9ceea1242830b6,
        type: 3}
      propertyPath: m_LocalRotation.z
      value: 0
      objectReference: {fileID: 0}
    - target: {fileID: 5695070818203191834, guid: 1ddcd40c1a5fbb347a9ceea1242830b6,
        type: 3}
      propertyPath: m_LocalRotation.w
      value: 1
      objectReference: {fileID: 0}
    - target: {fileID: 5695070818203191834, guid: 1ddcd40c1a5fbb347a9ceea1242830b6,
        type: 3}
      propertyPath: m_RootOrder
      value: 0
      objectReference: {fileID: 0}
    - target: {fileID: 5695070818203191834, guid: 1ddcd40c1a5fbb347a9ceea1242830b6,
        type: 3}
      propertyPath: m_LocalEulerAnglesHint.x
      value: 0
      objectReference: {fileID: 0}
    - target: {fileID: 5695070818203191834, guid: 1ddcd40c1a5fbb347a9ceea1242830b6,
        type: 3}
      propertyPath: m_LocalEulerAnglesHint.y
      value: 0
      objectReference: {fileID: 0}
    - target: {fileID: 5695070818203191834, guid: 1ddcd40c1a5fbb347a9ceea1242830b6,
        type: 3}
      propertyPath: m_LocalEulerAnglesHint.z
      value: 0
      objectReference: {fileID: 0}
    - target: {fileID: 5695070818203191834, guid: 1ddcd40c1a5fbb347a9ceea1242830b6,
        type: 3}
      propertyPath: m_LocalScale.x
      value: 1.25
      objectReference: {fileID: 0}
    - target: {fileID: 5695070818203191839, guid: 1ddcd40c1a5fbb347a9ceea1242830b6,
        type: 3}
      propertyPath: speed
      value: 2
      objectReference: {fileID: 0}
    - target: {fileID: 268952387, guid: 1ddcd40c1a5fbb347a9ceea1242830b6, type: 3}
      propertyPath: m_WasSpriteAssigned
      value: 0
      objectReference: {fileID: 0}
    - target: {fileID: 5695070818203191835, guid: 1ddcd40c1a5fbb347a9ceea1242830b6,
        type: 3}
      propertyPath: m_Sprite
      value: 
      objectReference: {fileID: 21300000, guid: 34a9cd12ff02ff244b1c70df95bee207,
        type: 3}
    - target: {fileID: 5695070818203191835, guid: 1ddcd40c1a5fbb347a9ceea1242830b6,
        type: 3}
      propertyPath: m_Color.r
      value: 0.8212461
      objectReference: {fileID: 0}
    - target: {fileID: 5695070818203191835, guid: 1ddcd40c1a5fbb347a9ceea1242830b6,
        type: 3}
      propertyPath: m_Color.g
      value: 1
      objectReference: {fileID: 0}
    - target: {fileID: 5695070818203191835, guid: 1ddcd40c1a5fbb347a9ceea1242830b6,
        type: 3}
      propertyPath: m_Color.b
      value: 0.495283
      objectReference: {fileID: 0}
    - target: {fileID: 5695070818203191832, guid: 1ddcd40c1a5fbb347a9ceea1242830b6,
        type: 3}
      propertyPath: m_SpriteTilingProperty.oldSize.x
      value: 1.5777777
      objectReference: {fileID: 0}
    - target: {fileID: 5695070818203191826, guid: 1ddcd40c1a5fbb347a9ceea1242830b6,
        type: 3}
      propertyPath: m_Controller
      value: 
      objectReference: {fileID: 9100000, guid: 723b4b1b6ebc9c847b65292c2443ae7c, type: 2}
    - target: {fileID: 5695070818203191827, guid: 1ddcd40c1a5fbb347a9ceea1242830b6,
        type: 3}
      propertyPath: m_SpriteTilingProperty.oldSize.x
      value: 1.5777777
      objectReference: {fileID: 0}
    - target: {fileID: 1725468213, guid: 1ddcd40c1a5fbb347a9ceea1242830b6, type: 3}
      propertyPath: m_SpriteTilingProperty.oldSize.x
      value: 1.5777777
      objectReference: {fileID: 0}
    m_RemovedComponents: []
  m_SourcePrefab: {fileID: 100100000, guid: 1ddcd40c1a5fbb347a9ceea1242830b6, type: 3}
--- !u!4 &6969390245655688673 stripped
Transform:
  m_CorrespondingSourceObject: {fileID: 5695070818203191834, guid: 1ddcd40c1a5fbb347a9ceea1242830b6,
    type: 3}
  m_PrefabInstance: {fileID: 3436469976470454267}
  m_PrefabAsset: {fileID: 0}
--- !u!1001 &4143109218432347009
PrefabInstance:
  m_ObjectHideFlags: 0
  serializedVersion: 2
  m_Modification:
    m_TransformParent: {fileID: 6969390245655688673}
    m_Modifications:
    - target: {fileID: 5127391955336987965, guid: 39d3d2434b5d51f438a003b6cc5f2410,
        type: 3}
      propertyPath: m_Name
      value: Cristal 1
      objectReference: {fileID: 0}
    - target: {fileID: 9055747001235433442, guid: 39d3d2434b5d51f438a003b6cc5f2410,
        type: 3}
      propertyPath: m_LocalPosition.x
      value: 0.646
      objectReference: {fileID: 0}
    - target: {fileID: 9055747001235433442, guid: 39d3d2434b5d51f438a003b6cc5f2410,
        type: 3}
      propertyPath: m_LocalPosition.y
      value: -0
      objectReference: {fileID: 0}
    - target: {fileID: 9055747001235433442, guid: 39d3d2434b5d51f438a003b6cc5f2410,
        type: 3}
      propertyPath: m_LocalPosition.z
      value: -1
      objectReference: {fileID: 0}
    - target: {fileID: 9055747001235433442, guid: 39d3d2434b5d51f438a003b6cc5f2410,
        type: 3}
      propertyPath: m_LocalRotation.x
      value: -0
      objectReference: {fileID: 0}
    - target: {fileID: 9055747001235433442, guid: 39d3d2434b5d51f438a003b6cc5f2410,
        type: 3}
      propertyPath: m_LocalRotation.y
      value: -0
      objectReference: {fileID: 0}
    - target: {fileID: 9055747001235433442, guid: 39d3d2434b5d51f438a003b6cc5f2410,
        type: 3}
      propertyPath: m_LocalRotation.z
      value: 0.052648123
      objectReference: {fileID: 0}
    - target: {fileID: 9055747001235433442, guid: 39d3d2434b5d51f438a003b6cc5f2410,
        type: 3}
      propertyPath: m_LocalRotation.w
      value: 0.9986131
      objectReference: {fileID: 0}
    - target: {fileID: 9055747001235433442, guid: 39d3d2434b5d51f438a003b6cc5f2410,
        type: 3}
      propertyPath: m_RootOrder
      value: 6
      objectReference: {fileID: 0}
    - target: {fileID: 9055747001235433442, guid: 39d3d2434b5d51f438a003b6cc5f2410,
        type: 3}
      propertyPath: m_LocalEulerAnglesHint.x
      value: 0
      objectReference: {fileID: 0}
    - target: {fileID: 9055747001235433442, guid: 39d3d2434b5d51f438a003b6cc5f2410,
        type: 3}
      propertyPath: m_LocalEulerAnglesHint.y
      value: 0
      objectReference: {fileID: 0}
    - target: {fileID: 9055747001235433442, guid: 39d3d2434b5d51f438a003b6cc5f2410,
        type: 3}
      propertyPath: m_LocalEulerAnglesHint.z
      value: 6.0360003
      objectReference: {fileID: 0}
    - target: {fileID: 9055747001235433442, guid: 39d3d2434b5d51f438a003b6cc5f2410,
        type: 3}
      propertyPath: m_LocalScale.x
      value: 1
      objectReference: {fileID: 0}
    - target: {fileID: 9055747001235433442, guid: 39d3d2434b5d51f438a003b6cc5f2410,
        type: 3}
      propertyPath: m_LocalScale.y
      value: 1
      objectReference: {fileID: 0}
    - target: {fileID: 5077489471402340254, guid: 39d3d2434b5d51f438a003b6cc5f2410,
        type: 3}
      propertyPath: m_LocalScale.x
      value: 0.0724638
      objectReference: {fileID: 0}
    - target: {fileID: 5077489471402340254, guid: 39d3d2434b5d51f438a003b6cc5f2410,
        type: 3}
      propertyPath: m_LocalScale.y
      value: 0.0724638
      objectReference: {fileID: 0}
    - target: {fileID: 5077489471402340254, guid: 39d3d2434b5d51f438a003b6cc5f2410,
        type: 3}
      propertyPath: m_LocalScale.z
      value: 0.0724638
      objectReference: {fileID: 0}
    - target: {fileID: 3507526437136196564, guid: 39d3d2434b5d51f438a003b6cc5f2410,
        type: 3}
      propertyPath: m_LocalPosition.z
      value: 0.9275
      objectReference: {fileID: 0}
    - target: {fileID: 3507526437136196564, guid: 39d3d2434b5d51f438a003b6cc5f2410,
        type: 3}
      propertyPath: m_LocalScale.x
      value: 0.0724638
      objectReference: {fileID: 0}
    - target: {fileID: 3507526437136196564, guid: 39d3d2434b5d51f438a003b6cc5f2410,
        type: 3}
      propertyPath: m_LocalScale.y
      value: 0.0724638
      objectReference: {fileID: 0}
    - target: {fileID: 3507526437136196564, guid: 39d3d2434b5d51f438a003b6cc5f2410,
        type: 3}
      propertyPath: m_LocalScale.z
      value: 0.0724638
      objectReference: {fileID: 0}
    - target: {fileID: 4989634308966804026, guid: 39d3d2434b5d51f438a003b6cc5f2410,
        type: 3}
      propertyPath: m_Materials.Array.data[0]
      value: 
      objectReference: {fileID: 2100000, guid: 9bc0b6e325e1acf4d99763da41f23673, type: 2}
    m_RemovedComponents: []
  m_SourcePrefab: {fileID: 100100000, guid: 39d3d2434b5d51f438a003b6cc5f2410, type: 3}
--- !u!1001 &8031320282492112100
PrefabInstance:
  m_ObjectHideFlags: 0
  serializedVersion: 2
  m_Modification:
    m_TransformParent: {fileID: 6969390245655688673}
    m_Modifications:
    - target: {fileID: 4798404419715461065, guid: 2ea69ad62ab049041970b2319baae0f7,
        type: 3}
      propertyPath: m_Name
      value: Cristal 2 (1)
      objectReference: {fileID: 0}
    - target: {fileID: 8734538326740355690, guid: 2ea69ad62ab049041970b2319baae0f7,
        type: 3}
      propertyPath: m_LocalPosition.x
      value: 0
      objectReference: {fileID: 0}
    - target: {fileID: 8734538326740355690, guid: 2ea69ad62ab049041970b2319baae0f7,
        type: 3}
      propertyPath: m_LocalPosition.y
      value: -0.73999995
      objectReference: {fileID: 0}
    - target: {fileID: 8734538326740355690, guid: 2ea69ad62ab049041970b2319baae0f7,
        type: 3}
      propertyPath: m_LocalPosition.z
      value: -1
      objectReference: {fileID: 0}
    - target: {fileID: 8734538326740355690, guid: 2ea69ad62ab049041970b2319baae0f7,
        type: 3}
      propertyPath: m_LocalRotation.x
      value: -0
      objectReference: {fileID: 0}
    - target: {fileID: 8734538326740355690, guid: 2ea69ad62ab049041970b2319baae0f7,
        type: 3}
      propertyPath: m_LocalRotation.y
      value: -0
      objectReference: {fileID: 0}
    - target: {fileID: 8734538326740355690, guid: 2ea69ad62ab049041970b2319baae0f7,
        type: 3}
      propertyPath: m_LocalRotation.z
      value: 0.023718204
      objectReference: {fileID: 0}
    - target: {fileID: 8734538326740355690, guid: 2ea69ad62ab049041970b2319baae0f7,
        type: 3}
      propertyPath: m_LocalRotation.w
      value: 0.9997187
      objectReference: {fileID: 0}
    - target: {fileID: 8734538326740355690, guid: 2ea69ad62ab049041970b2319baae0f7,
        type: 3}
      propertyPath: m_RootOrder
      value: 7
      objectReference: {fileID: 0}
    - target: {fileID: 8734538326740355690, guid: 2ea69ad62ab049041970b2319baae0f7,
        type: 3}
      propertyPath: m_LocalEulerAnglesHint.x
      value: 0
      objectReference: {fileID: 0}
    - target: {fileID: 8734538326740355690, guid: 2ea69ad62ab049041970b2319baae0f7,
        type: 3}
      propertyPath: m_LocalEulerAnglesHint.y
      value: 0
      objectReference: {fileID: 0}
    - target: {fileID: 8734538326740355690, guid: 2ea69ad62ab049041970b2319baae0f7,
        type: 3}
      propertyPath: m_LocalEulerAnglesHint.z
      value: 2.7180002
      objectReference: {fileID: 0}
    - target: {fileID: 8734538326740355690, guid: 2ea69ad62ab049041970b2319baae0f7,
        type: 3}
      propertyPath: m_LocalScale.x
      value: -1
      objectReference: {fileID: 0}
    - target: {fileID: 8734538326740355690, guid: 2ea69ad62ab049041970b2319baae0f7,
        type: 3}
      propertyPath: m_LocalScale.y
      value: 1
      objectReference: {fileID: 0}
    - target: {fileID: 8932798262109539902, guid: 2ea69ad62ab049041970b2319baae0f7,
        type: 3}
      propertyPath: m_LocalScale.x
      value: 0.084331095
      objectReference: {fileID: 0}
    - target: {fileID: 8932798262109539902, guid: 2ea69ad62ab049041970b2319baae0f7,
        type: 3}
      propertyPath: m_LocalScale.y
      value: 0.084331095
      objectReference: {fileID: 0}
    - target: {fileID: 8932798262109539902, guid: 2ea69ad62ab049041970b2319baae0f7,
        type: 3}
      propertyPath: m_LocalScale.z
      value: 0.084331095
      objectReference: {fileID: 0}
    - target: {fileID: 8932798262109539902, guid: 2ea69ad62ab049041970b2319baae0f7,
        type: 3}
      propertyPath: m_LocalPosition.x
      value: 0
      objectReference: {fileID: 0}
    - target: {fileID: 8932798262109539902, guid: 2ea69ad62ab049041970b2319baae0f7,
        type: 3}
      propertyPath: m_LocalPosition.y
      value: 0
      objectReference: {fileID: 0}
    - target: {fileID: 5494689255408971832, guid: 2ea69ad62ab049041970b2319baae0f7,
        type: 3}
      propertyPath: m_LocalPosition.z
      value: 0.9157
      objectReference: {fileID: 0}
    - target: {fileID: 5494689255408971832, guid: 2ea69ad62ab049041970b2319baae0f7,
        type: 3}
      propertyPath: m_LocalScale.x
      value: 0.084331095
      objectReference: {fileID: 0}
    - target: {fileID: 5494689255408971832, guid: 2ea69ad62ab049041970b2319baae0f7,
        type: 3}
      propertyPath: m_LocalScale.y
      value: 0.084331095
      objectReference: {fileID: 0}
    - target: {fileID: 5494689255408971832, guid: 2ea69ad62ab049041970b2319baae0f7,
        type: 3}
      propertyPath: m_LocalScale.z
      value: 0.084331095
      objectReference: {fileID: 0}
    - target: {fileID: 5494689255408971832, guid: 2ea69ad62ab049041970b2319baae0f7,
        type: 3}
      propertyPath: m_LocalPosition.x
      value: 0
      objectReference: {fileID: 0}
    - target: {fileID: 5494689255408971832, guid: 2ea69ad62ab049041970b2319baae0f7,
        type: 3}
      propertyPath: m_LocalPosition.y
      value: 0
      objectReference: {fileID: 0}
    - target: {fileID: 2468018258096554645, guid: 2ea69ad62ab049041970b2319baae0f7,
        type: 3}
      propertyPath: m_Materials.Array.data[0]
      value: 
      objectReference: {fileID: 2100000, guid: 9bc0b6e325e1acf4d99763da41f23673, type: 2}
    m_RemovedComponents: []
  m_SourcePrefab: {fileID: 100100000, guid: 2ea69ad62ab049041970b2319baae0f7, type: 3}
--- !u!1001 &8747927204412031303
PrefabInstance:
  m_ObjectHideFlags: 0
  serializedVersion: 2
  m_Modification:
    m_TransformParent: {fileID: 6969390245655688673}
    m_Modifications:
    - target: {fileID: 3469749931896183861, guid: 6bf888819ceee2f409b84a78568b1beb,
        type: 3}
      propertyPath: m_Name
      value: Cristal 3
      objectReference: {fileID: 0}
    - target: {fileID: 4623206307697323682, guid: 6bf888819ceee2f409b84a78568b1beb,
        type: 3}
      propertyPath: m_LocalPosition.x
      value: -0.24
      objectReference: {fileID: 0}
    - target: {fileID: 4623206307697323682, guid: 6bf888819ceee2f409b84a78568b1beb,
        type: 3}
      propertyPath: m_LocalPosition.y
      value: 0.35
      objectReference: {fileID: 0}
    - target: {fileID: 4623206307697323682, guid: 6bf888819ceee2f409b84a78568b1beb,
        type: 3}
      propertyPath: m_LocalPosition.z
      value: -1
      objectReference: {fileID: 0}
    - target: {fileID: 4623206307697323682, guid: 6bf888819ceee2f409b84a78568b1beb,
        type: 3}
      propertyPath: m_LocalRotation.x
      value: -0
      objectReference: {fileID: 0}
    - target: {fileID: 4623206307697323682, guid: 6bf888819ceee2f409b84a78568b1beb,
        type: 3}
      propertyPath: m_LocalRotation.y
      value: -0
      objectReference: {fileID: 0}
    - target: {fileID: 4623206307697323682, guid: 6bf888819ceee2f409b84a78568b1beb,
        type: 3}
      propertyPath: m_LocalRotation.z
      value: 0.07797412
      objectReference: {fileID: 0}
    - target: {fileID: 4623206307697323682, guid: 6bf888819ceee2f409b84a78568b1beb,
        type: 3}
      propertyPath: m_LocalRotation.w
      value: 0.9969554
      objectReference: {fileID: 0}
    - target: {fileID: 4623206307697323682, guid: 6bf888819ceee2f409b84a78568b1beb,
        type: 3}
      propertyPath: m_RootOrder
      value: 3
      objectReference: {fileID: 0}
    - target: {fileID: 4623206307697323682, guid: 6bf888819ceee2f409b84a78568b1beb,
        type: 3}
      propertyPath: m_LocalEulerAnglesHint.x
      value: 0
      objectReference: {fileID: 0}
    - target: {fileID: 4623206307697323682, guid: 6bf888819ceee2f409b84a78568b1beb,
        type: 3}
      propertyPath: m_LocalEulerAnglesHint.y
      value: 0
      objectReference: {fileID: 0}
    - target: {fileID: 4623206307697323682, guid: 6bf888819ceee2f409b84a78568b1beb,
        type: 3}
      propertyPath: m_LocalEulerAnglesHint.z
      value: 8.944
      objectReference: {fileID: 0}
    - target: {fileID: 4623206307697323682, guid: 6bf888819ceee2f409b84a78568b1beb,
        type: 3}
      propertyPath: m_LocalScale.x
      value: 1
      objectReference: {fileID: 0}
    - target: {fileID: 4623206307697323682, guid: 6bf888819ceee2f409b84a78568b1beb,
        type: 3}
      propertyPath: m_LocalScale.y
      value: 1
      objectReference: {fileID: 0}
    - target: {fileID: 8692184116093511470, guid: 6bf888819ceee2f409b84a78568b1beb,
        type: 3}
      propertyPath: m_LocalPosition.x
      value: 0
      objectReference: {fileID: 0}
    - target: {fileID: 8692184116093511470, guid: 6bf888819ceee2f409b84a78568b1beb,
        type: 3}
      propertyPath: m_LocalPosition.y
      value: 0
      objectReference: {fileID: 0}
    - target: {fileID: 8692184116093511470, guid: 6bf888819ceee2f409b84a78568b1beb,
        type: 3}
      propertyPath: m_LocalScale.x
      value: 0.094960794
      objectReference: {fileID: 0}
    - target: {fileID: 8692184116093511470, guid: 6bf888819ceee2f409b84a78568b1beb,
        type: 3}
      propertyPath: m_LocalScale.y
      value: 0.094960794
      objectReference: {fileID: 0}
    - target: {fileID: 8692184116093511470, guid: 6bf888819ceee2f409b84a78568b1beb,
        type: 3}
      propertyPath: m_LocalScale.z
      value: 0.09482999
      objectReference: {fileID: 0}
    - target: {fileID: 5581439765030694168, guid: 6bf888819ceee2f409b84a78568b1beb,
        type: 3}
      propertyPath: m_LocalPosition.x
      value: 0
      objectReference: {fileID: 0}
    - target: {fileID: 5581439765030694168, guid: 6bf888819ceee2f409b84a78568b1beb,
        type: 3}
      propertyPath: m_LocalPosition.y
      value: 0
      objectReference: {fileID: 0}
    - target: {fileID: 5581439765030694168, guid: 6bf888819ceee2f409b84a78568b1beb,
        type: 3}
      propertyPath: m_LocalPosition.z
      value: 0.905
      objectReference: {fileID: 0}
    - target: {fileID: 5581439765030694168, guid: 6bf888819ceee2f409b84a78568b1beb,
        type: 3}
      propertyPath: m_LocalScale.x
      value: 0.094960794
      objectReference: {fileID: 0}
    - target: {fileID: 5581439765030694168, guid: 6bf888819ceee2f409b84a78568b1beb,
        type: 3}
      propertyPath: m_LocalScale.y
      value: 0.094960794
      objectReference: {fileID: 0}
    - target: {fileID: 5581439765030694168, guid: 6bf888819ceee2f409b84a78568b1beb,
        type: 3}
      propertyPath: m_LocalScale.z
      value: 0.09482999
      objectReference: {fileID: 0}
    - target: {fileID: 4889311670139254367, guid: 6bf888819ceee2f409b84a78568b1beb,
        type: 3}
      propertyPath: m_Materials.Array.data[0]
      value: 
      objectReference: {fileID: 2100000, guid: 9bc0b6e325e1acf4d99763da41f23673, type: 2}
    m_RemovedComponents: []
  m_SourcePrefab: {fileID: 100100000, guid: 6bf888819ceee2f409b84a78568b1beb, type: 3}
