%YAML 1.1
%TAG !u! tag:unity3d.com,2011:
--- !u!1001 &3436469976470454267
PrefabInstance:
  m_ObjectHideFlags: 0
  serializedVersion: 2
  m_Modification:
    m_TransformParent: {fileID: 0}
    m_Modifications:
    - target: {fileID: 5695070818203191824, guid: 1ddcd40c1a5fbb347a9ceea1242830b6,
        type: 3}
      propertyPath: m_Name
      value: Enemy1.2(F2)
      objectReference: {fileID: 0}
    - target: {fileID: 5695070818203191834, guid: 1ddcd40c1a5fbb347a9ceea1242830b6,
        type: 3}
      propertyPath: m_LocalPosition.x
      value: 539
      objectReference: {fileID: 0}
    - target: {fileID: 5695070818203191834, guid: 1ddcd40c1a5fbb347a9ceea1242830b6,
        type: 3}
      propertyPath: m_LocalPosition.y
      value: -1.74
      objectReference: {fileID: 0}
    - target: {fileID: 5695070818203191834, guid: 1ddcd40c1a5fbb347a9ceea1242830b6,
        type: 3}
      propertyPath: m_LocalPosition.z
      value: 0
      objectReference: {fileID: 0}
    - target: {fileID: 5695070818203191834, guid: 1ddcd40c1a5fbb347a9ceea1242830b6,
        type: 3}
      propertyPath: m_LocalRotation.x
      value: 0
      objectReference: {fileID: 0}
    - target: {fileID: 5695070818203191834, guid: 1ddcd40c1a5fbb347a9ceea1242830b6,
        type: 3}
      propertyPath: m_LocalRotation.y
      value: 0
      objectReference: {fileID: 0}
    - target: {fileID: 5695070818203191834, guid: 1ddcd40c1a5fbb347a9ceea1242830b6,
        type: 3}
      propertyPath: m_LocalRotation.z
      value: 0
      objectReference: {fileID: 0}
    - target: {fileID: 5695070818203191834, guid: 1ddcd40c1a5fbb347a9ceea1242830b6,
        type: 3}
      propertyPath: m_LocalRotation.w
      value: 1
      objectReference: {fileID: 0}
    - target: {fileID: 5695070818203191834, guid: 1ddcd40c1a5fbb347a9ceea1242830b6,
        type: 3}
      propertyPath: m_RootOrder
      value: 0
      objectReference: {fileID: 0}
    - target: {fileID: 5695070818203191834, guid: 1ddcd40c1a5fbb347a9ceea1242830b6,
        type: 3}
      propertyPath: m_LocalEulerAnglesHint.x
      value: 0
      objectReference: {fileID: 0}
    - target: {fileID: 5695070818203191834, guid: 1ddcd40c1a5fbb347a9ceea1242830b6,
        type: 3}
      propertyPath: m_LocalEulerAnglesHint.y
      value: 0
      objectReference: {fileID: 0}
    - target: {fileID: 5695070818203191834, guid: 1ddcd40c1a5fbb347a9ceea1242830b6,
        type: 3}
      propertyPath: m_LocalEulerAnglesHint.z
      value: 0
      objectReference: {fileID: 0}
    - target: {fileID: 5695070818203191834, guid: 1ddcd40c1a5fbb347a9ceea1242830b6,
        type: 3}
      propertyPath: m_LocalScale.x
      value: -1.25
      objectReference: {fileID: 0}
    - target: {fileID: 5695070818203191839, guid: 1ddcd40c1a5fbb347a9ceea1242830b6,
        type: 3}
      propertyPath: speed
      value: -2
      objectReference: {fileID: 0}
    - target: {fileID: 5695070818203191835, guid: 1ddcd40c1a5fbb347a9ceea1242830b6,
        type: 3}
      propertyPath: m_Sprite
      value: 
      objectReference: {fileID: 21300000, guid: 41a0a86444807fc41ad41215ddfe5c1b,
        type: 3}
    - target: {fileID: 5695070818203191835, guid: 1ddcd40c1a5fbb347a9ceea1242830b6,
        type: 3}
      propertyPath: m_Color.r
      value: 1
      objectReference: {fileID: 0}
    - target: {fileID: 5695070818203191835, guid: 1ddcd40c1a5fbb347a9ceea1242830b6,
        type: 3}
      propertyPath: m_Color.g
      value: 1
      objectReference: {fileID: 0}
    - target: {fileID: 5695070818203191835, guid: 1ddcd40c1a5fbb347a9ceea1242830b6,
        type: 3}
      propertyPath: m_Color.b
      value: 1
      objectReference: {fileID: 0}
    - target: {fileID: 5695070818203191832, guid: 1ddcd40c1a5fbb347a9ceea1242830b6,
        type: 3}
      propertyPath: m_SpriteTilingProperty.oldSize.x
      value: 1.6222222
      objectReference: {fileID: 0}
    - target: {fileID: 5695070818203191826, guid: 1ddcd40c1a5fbb347a9ceea1242830b6,
        type: 3}
      propertyPath: m_Controller
      value: 
      objectReference: {fileID: 9100000, guid: 723b4b1b6ebc9c847b65292c2443ae7c, type: 2}
    - target: {fileID: 5695070818203191827, guid: 1ddcd40c1a5fbb347a9ceea1242830b6,
        type: 3}
      propertyPath: m_SpriteTilingProperty.oldSize.x
      value: 1.6222222
      objectReference: {fileID: 0}
    - target: {fileID: 1725468213, guid: 1ddcd40c1a5fbb347a9ceea1242830b6, type: 3}
      propertyPath: m_SpriteTilingProperty.oldSize.x
      value: 1.6222222
      objectReference: {fileID: 0}
    m_RemovedComponents: []
  m_SourcePrefab: {fileID: 100100000, guid: 1ddcd40c1a5fbb347a9ceea1242830b6, type: 3}
