%YAML 1.1
%TAG !u! tag:unity3d.com,2011:
--- !u!1001 &5918348221896017448
PrefabInstance:
  m_ObjectHideFlags: 0
  serializedVersion: 2
  m_Modification:
    m_TransformParent: {fileID: 0}
    m_Modifications:
    - target: {fileID: 8858488939796303077, guid: a565694761d54fa41894c2cd00c2fcc8,
        type: 3}
      propertyPath: m_Name
      value: Enemy2 (1) Variant (5)
      objectReference: {fileID: 0}
    - target: {fileID: 8858488939796303098, guid: a565694761d54fa41894c2cd00c2fcc8,
        type: 3}
      propertyPath: m_LocalPosition.x
      value: 397.5
      objectReference: {fileID: 0}
    - target: {fileID: 8858488939796303098, guid: a565694761d54fa41894c2cd00c2fcc8,
        type: 3}
      propertyPath: m_LocalPosition.y
      value: -8.13
      objectReference: {fileID: 0}
    - target: {fileID: 8858488939796303098, guid: a565694761d54fa41894c2cd00c2fcc8,
        type: 3}
      propertyPath: m_LocalPosition.z
      value: 0.12954363
      objectReference: {fileID: 0}
    - target: {fileID: 8858488939796303098, guid: a565694761d54fa41894c2cd00c2fcc8,
        type: 3}
      propertyPath: m_LocalRotation.x
      value: -0
      objectReference: {fileID: 0}
    - target: {fileID: 8858488939796303098, guid: a565694761d54fa41894c2cd00c2fcc8,
        type: 3}
      propertyPath: m_LocalRotation.y
      value: -0
      objectReference: {fileID: 0}
    - target: {fileID: 8858488939796303098, guid: a565694761d54fa41894c2cd00c2fcc8,
        type: 3}
      propertyPath: m_LocalRotation.z
      value: -0
      objectReference: {fileID: 0}
    - target: {fileID: 8858488939796303098, guid: a565694761d54fa41894c2cd00c2fcc8,
        type: 3}
      propertyPath: m_LocalRotation.w
      value: 1
      objectReference: {fileID: 0}
    - target: {fileID: 8858488939796303098, guid: a565694761d54fa41894c2cd00c2fcc8,
        type: 3}
      propertyPath: m_RootOrder
      value: 0
      objectReference: {fileID: 0}
    - target: {fileID: 8858488939796303098, guid: a565694761d54fa41894c2cd00c2fcc8,
        type: 3}
      propertyPath: m_LocalEulerAnglesHint.x
      value: 0
      objectReference: {fileID: 0}
    - target: {fileID: 8858488939796303098, guid: a565694761d54fa41894c2cd00c2fcc8,
        type: 3}
      propertyPath: m_LocalEulerAnglesHint.y
      value: 0
      objectReference: {fileID: 0}
    - target: {fileID: 8858488939796303098, guid: a565694761d54fa41894c2cd00c2fcc8,
        type: 3}
      propertyPath: m_LocalEulerAnglesHint.z
      value: 0
      objectReference: {fileID: 0}
    m_RemovedComponents: []
  m_SourcePrefab: {fileID: 100100000, guid: a565694761d54fa41894c2cd00c2fcc8, type: 3}
