%YAML 1.1
%TAG !u! tag:unity3d.com,2011:
--- !u!74 &7400000
AnimationClip:
  m_ObjectHideFlags: 0
  m_CorrespondingSourceObject: {fileID: 0}
  m_PrefabInstance: {fileID: 0}
  m_PrefabAsset: {fileID: 0}
  m_Name: GunDeath1
  serializedVersion: 6
  m_Legacy: 0
  m_Compressed: 0
  m_UseHighQualityCurve: 1
  m_RotationCurves: []
  m_CompressedRotationCurves: []
  m_EulerCurves: []
  m_PositionCurves: []
  m_ScaleCurves: []
  m_FloatCurves:
  - curve:
      serializedVersion: 2
      m_Curve:
      - serializedVersion: 3
        time: 0
        value: -0.5
        inSlope: 0
        outSlope: 0
        tangentMode: 136
        weightedMode: 0
        inWeight: 0
        outWeight: 0
      - serializedVersion: 3
        time: 1.4166666
        value: -0.5
        inSlope: 0
        outSlope: 0
        tangentMode: 136
        weightedMode: 0
        inWeight: 0.33333334
        outWeight: 0.33333334
      - serializedVersion: 3
        time: 4.1666665
        value: -1.5
        inSlope: 0
        outSlope: 0
        tangentMode: 136
        weightedMode: 0
        inWeight: 0.33333334
        outWeight: 0.33333334
      m_PreInfinity: 2
      m_PostInfinity: 2
      m_RotationOrder: 4
    attribute: m_Offset.x
    path: 
    classID: 60
    script: {fileID: 0}
  - curve:
      serializedVersion: 2
      m_Curve:
      - serializedVersion: 3
        time: 0
        value: -0.5
        inSlope: 0
        outSlope: 0
        tangentMode: 136
        weightedMode: 0
        inWeight: 0
        outWeight: 0
      - serializedVersion: 3
        time: 1.4166666
        value: -0.5
        inSlope: 0
        outSlope: 0
        tangentMode: 136
        weightedMode: 0
        inWeight: 0.33333334
        outWeight: 0.33333334
      - serializedVersion: 3
        time: 4.1666665
        value: -1.25
        inSlope: 0
        outSlope: 0
        tangentMode: 136
        weightedMode: 0
        inWeight: 0.33333334
        outWeight: 0.33333334
      m_PreInfinity: 2
      m_PostInfinity: 2
      m_RotationOrder: 4
    attribute: m_Offset.x
    path: 
    classID: 61
    script: {fileID: 0}
  - curve:
      serializedVersion: 2
      m_Curve:
      - serializedVersion: 3
        time: 0
        value: 1
        inSlope: 0
        outSlope: 0
        tangentMode: 136
        weightedMode: 0
        inWeight: 0
        outWeight: 0
      - serializedVersion: 3
        time: 4.1666665
        value: 1.5
        inSlope: 0
        outSlope: 0
        tangentMode: 136
        weightedMode: 0
        inWeight: 0.33333334
        outWeight: 0.33333334
      m_PreInfinity: 2
      m_PostInfinity: 2
      m_RotationOrder: 4
    attribute: m_Size.x
    path: 
    classID: 61
    script: {fileID: 0}
  m_PPtrCurves:
  - curve:
    - time: 0
      value: {fileID: 21300000, guid: e76bf59a5c4724c4284e48450149e7b4, type: 3}
    - time: 0.083333336
      value: {fileID: 21300002, guid: e76bf59a5c4724c4284e48450149e7b4, type: 3}
    - time: 0.16666667
      value: {fileID: 21300004, guid: e76bf59a5c4724c4284e48450149e7b4, type: 3}
    - time: 0.25
      value: {fileID: 21300006, guid: e76bf59a5c4724c4284e48450149e7b4, type: 3}
    - time: 0.33333334
      value: {fileID: 21300008, guid: e76bf59a5c4724c4284e48450149e7b4, type: 3}
    - time: 0.41666666
      value: {fileID: 21300010, guid: e76bf59a5c4724c4284e48450149e7b4, type: 3}
    - time: 0.5
      value: {fileID: 21300012, guid: e76bf59a5c4724c4284e48450149e7b4, type: 3}
    - time: 0.5833333
      value: {fileID: 21300014, guid: e76bf59a5c4724c4284e48450149e7b4, type: 3}
    - time: 0.6666667
      value: {fileID: 21300016, guid: e76bf59a5c4724c4284e48450149e7b4, type: 3}
    - time: 0.75
      value: {fileID: 21300018, guid: e76bf59a5c4724c4284e48450149e7b4, type: 3}
    - time: 0.8333333
      value: {fileID: 21300020, guid: e76bf59a5c4724c4284e48450149e7b4, type: 3}
    - time: 0.9166667
      value: {fileID: 21300022, guid: e76bf59a5c4724c4284e48450149e7b4, type: 3}
    - time: 1
      value: {fileID: 21300024, guid: e76bf59a5c4724c4284e48450149e7b4, type: 3}
    - time: 1.0833334
      value: {fileID: 21300026, guid: e76bf59a5c4724c4284e48450149e7b4, type: 3}
    - time: 1.1666666
      value: {fileID: 21300028, guid: e76bf59a5c4724c4284e48450149e7b4, type: 3}
    - time: 1.25
      value: {fileID: 21300030, guid: e76bf59a5c4724c4284e48450149e7b4, type: 3}
    - time: 1.3333334
      value: {fileID: 21300032, guid: e76bf59a5c4724c4284e48450149e7b4, type: 3}
    - time: 1.4166666
      value: {fileID: 21300034, guid: e76bf59a5c4724c4284e48450149e7b4, type: 3}
    - time: 1.5
      value: {fileID: 21300036, guid: e76bf59a5c4724c4284e48450149e7b4, type: 3}
    - time: 1.5833334
      value: {fileID: 21300038, guid: e76bf59a5c4724c4284e48450149e7b4, type: 3}
    - time: 1.6666666
      value: {fileID: 21300040, guid: e76bf59a5c4724c4284e48450149e7b4, type: 3}
    - time: 1.75
      value: {fileID: 21300042, guid: e76bf59a5c4724c4284e48450149e7b4, type: 3}
    - time: 1.8333334
      value: {fileID: 21300044, guid: e76bf59a5c4724c4284e48450149e7b4, type: 3}
    - time: 1.9166666
      value: {fileID: 21300046, guid: e76bf59a5c4724c4284e48450149e7b4, type: 3}
    - time: 2
      value: {fileID: 21300048, guid: e76bf59a5c4724c4284e48450149e7b4, type: 3}
    - time: 2.0833333
      value: {fileID: 21300050, guid: e76bf59a5c4724c4284e48450149e7b4, type: 3}
    - time: 2.1666667
      value: {fileID: 21300052, guid: e76bf59a5c4724c4284e48450149e7b4, type: 3}
    - time: 2.25
      value: {fileID: 21300054, guid: e76bf59a5c4724c4284e48450149e7b4, type: 3}
    - time: 2.3333333
      value: {fileID: 21300056, guid: e76bf59a5c4724c4284e48450149e7b4, type: 3}
    - time: 2.4166667
      value: {fileID: 21300058, guid: e76bf59a5c4724c4284e48450149e7b4, type: 3}
    - time: 2.5
      value: {fileID: 21300060, guid: e76bf59a5c4724c4284e48450149e7b4, type: 3}
    - time: 2.5833333
      value: {fileID: 21300062, guid: e76bf59a5c4724c4284e48450149e7b4, type: 3}
    - time: 2.6666667
      value: {fileID: 21300064, guid: e76bf59a5c4724c4284e48450149e7b4, type: 3}
    - time: 2.75
      value: {fileID: 21300066, guid: e76bf59a5c4724c4284e48450149e7b4, type: 3}
    - time: 2.8333333
      value: {fileID: 21300068, guid: e76bf59a5c4724c4284e48450149e7b4, type: 3}
    - time: 2.9166667
      value: {fileID: 21300070, guid: e76bf59a5c4724c4284e48450149e7b4, type: 3}
    - time: 3
      value: {fileID: 21300072, guid: e76bf59a5c4724c4284e48450149e7b4, type: 3}
    - time: 3.0833333
      value: {fileID: 21300074, guid: e76bf59a5c4724c4284e48450149e7b4, type: 3}
    - time: 3.1666667
      value: {fileID: 21300076, guid: e76bf59a5c4724c4284e48450149e7b4, type: 3}
    - time: 3.25
      value: {fileID: 21300078, guid: e76bf59a5c4724c4284e48450149e7b4, type: 3}
    - time: 3.3333333
      value: {fileID: 21300080, guid: e76bf59a5c4724c4284e48450149e7b4, type: 3}
    - time: 3.4166667
      value: {fileID: 21300082, guid: e76bf59a5c4724c4284e48450149e7b4, type: 3}
    - time: 3.5
      value: {fileID: 21300084, guid: e76bf59a5c4724c4284e48450149e7b4, type: 3}
    - time: 3.5833333
      value: {fileID: 21300086, guid: e76bf59a5c4724c4284e48450149e7b4, type: 3}
    - time: 3.6666667
      value: {fileID: 21300088, guid: e76bf59a5c4724c4284e48450149e7b4, type: 3}
    - time: 3.75
      value: {fileID: 21300090, guid: e76bf59a5c4724c4284e48450149e7b4, type: 3}
    - time: 3.8333333
      value: {fileID: 21300092, guid: e76bf59a5c4724c4284e48450149e7b4, type: 3}
    - time: 3.9166667
      value: {fileID: 21300094, guid: e76bf59a5c4724c4284e48450149e7b4, type: 3}
    - time: 4
      value: {fileID: 21300096, guid: e76bf59a5c4724c4284e48450149e7b4, type: 3}
    - time: 4.0833335
      value: {fileID: 21300098, guid: e76bf59a5c4724c4284e48450149e7b4, type: 3}
    - time: 4.1666665
      value: {fileID: 21300100, guid: e76bf59a5c4724c4284e48450149e7b4, type: 3}
    attribute: m_Sprite
    path: 
    classID: 212
    script: {fileID: 0}
  m_SampleRate: 12
  m_WrapMode: 0
  m_Bounds:
    m_Center: {x: 0, y: 0, z: 0}
    m_Extent: {x: 0, y: 0, z: 0}
  m_ClipBindingConstant:
    genericBindings:
    - serializedVersion: 2
      path: 0
      attribute: 413499720
      script: {fileID: 0}
      typeID: 60
      customType: 0
      isPPtrCurve: 0
    - serializedVersion: 2
      path: 0
      attribute: 413499720
      script: {fileID: 0}
      typeID: 61
      customType: 0
      isPPtrCurve: 0
    - serializedVersion: 2
      path: 0
      attribute: 4197328169
      script: {fileID: 0}
      typeID: 61
      customType: 0
      isPPtrCurve: 0
    - serializedVersion: 2
      path: 0
      attribute: 0
      script: {fileID: 0}
      typeID: 212
      customType: 23
      isPPtrCurve: 1
    pptrCurveMapping:
    - {fileID: 21300000, guid: e76bf59a5c4724c4284e48450149e7b4, type: 3}
    - {fileID: 21300002, guid: e76bf59a5c4724c4284e48450149e7b4, type: 3}
    - {fileID: 21300004, guid: e76bf59a5c4724c4284e48450149e7b4, type: 3}
    - {fileID: 21300006, guid: e76bf59a5c4724c4284e48450149e7b4, type: 3}
    - {fileID: 21300008, guid: e76bf59a5c4724c4284e48450149e7b4, type: 3}
    - {fileID: 21300010, guid: e76bf59a5c4724c4284e48450149e7b4, type: 3}
    - {fileID: 21300012, guid: e76bf59a5c4724c4284e48450149e7b4, type: 3}
    - {fileID: 21300014, guid: e76bf59a5c4724c4284e48450149e7b4, type: 3}
    - {fileID: 21300016, guid: e76bf59a5c4724c4284e48450149e7b4, type: 3}
    - {fileID: 21300018, guid: e76bf59a5c4724c4284e48450149e7b4, type: 3}
    - {fileID: 21300020, guid: e76bf59a5c4724c4284e48450149e7b4, type: 3}
    - {fileID: 21300022, guid: e76bf59a5c4724c4284e48450149e7b4, type: 3}
    - {fileID: 21300024, guid: e76bf59a5c4724c4284e48450149e7b4, type: 3}
    - {fileID: 21300026, guid: e76bf59a5c4724c4284e48450149e7b4, type: 3}
    - {fileID: 21300028, guid: e76bf59a5c4724c4284e48450149e7b4, type: 3}
    - {fileID: 21300030, guid: e76bf59a5c4724c4284e48450149e7b4, type: 3}
    - {fileID: 21300032, guid: e76bf59a5c4724c4284e48450149e7b4, type: 3}
    - {fileID: 21300034, guid: e76bf59a5c4724c4284e48450149e7b4, type: 3}
    - {fileID: 21300036, guid: e76bf59a5c4724c4284e48450149e7b4, type: 3}
    - {fileID: 21300038, guid: e76bf59a5c4724c4284e48450149e7b4, type: 3}
    - {fileID: 21300040, guid: e76bf59a5c4724c4284e48450149e7b4, type: 3}
    - {fileID: 21300042, guid: e76bf59a5c4724c4284e48450149e7b4, type: 3}
    - {fileID: 21300044, guid: e76bf59a5c4724c4284e48450149e7b4, type: 3}
    - {fileID: 21300046, guid: e76bf59a5c4724c4284e48450149e7b4, type: 3}
    - {fileID: 21300048, guid: e76bf59a5c4724c4284e48450149e7b4, type: 3}
    - {fileID: 21300050, guid: e76bf59a5c4724c4284e48450149e7b4, type: 3}
    - {fileID: 21300052, guid: e76bf59a5c4724c4284e48450149e7b4, type: 3}
    - {fileID: 21300054, guid: e76bf59a5c4724c4284e48450149e7b4, type: 3}
    - {fileID: 21300056, guid: e76bf59a5c4724c4284e48450149e7b4, type: 3}
    - {fileID: 21300058, guid: e76bf59a5c4724c4284e48450149e7b4, type: 3}
    - {fileID: 21300060, guid: e76bf59a5c4724c4284e48450149e7b4, type: 3}
    - {fileID: 21300062, guid: e76bf59a5c4724c4284e48450149e7b4, type: 3}
    - {fileID: 21300064, guid: e76bf59a5c4724c4284e48450149e7b4, type: 3}
    - {fileID: 21300066, guid: e76bf59a5c4724c4284e48450149e7b4, type: 3}
    - {fileID: 21300068, guid: e76bf59a5c4724c4284e48450149e7b4, type: 3}
    - {fileID: 21300070, guid: e76bf59a5c4724c4284e48450149e7b4, type: 3}
    - {fileID: 21300072, guid: e76bf59a5c4724c4284e48450149e7b4, type: 3}
    - {fileID: 21300074, guid: e76bf59a5c4724c4284e48450149e7b4, type: 3}
    - {fileID: 21300076, guid: e76bf59a5c4724c4284e48450149e7b4, type: 3}
    - {fileID: 21300078, guid: e76bf59a5c4724c4284e48450149e7b4, type: 3}
    - {fileID: 21300080, guid: e76bf59a5c4724c4284e48450149e7b4, type: 3}
    - {fileID: 21300082, guid: e76bf59a5c4724c4284e48450149e7b4, type: 3}
    - {fileID: 21300084, guid: e76bf59a5c4724c4284e48450149e7b4, type: 3}
    - {fileID: 21300086, guid: e76bf59a5c4724c4284e48450149e7b4, type: 3}
    - {fileID: 21300088, guid: e76bf59a5c4724c4284e48450149e7b4, type: 3}
    - {fileID: 21300090, guid: e76bf59a5c4724c4284e48450149e7b4, type: 3}
    - {fileID: 21300092, guid: e76bf59a5c4724c4284e48450149e7b4, type: 3}
    - {fileID: 21300094, guid: e76bf59a5c4724c4284e48450149e7b4, type: 3}
    - {fileID: 21300096, guid: e76bf59a5c4724c4284e48450149e7b4, type: 3}
    - {fileID: 21300098, guid: e76bf59a5c4724c4284e48450149e7b4, type: 3}
    - {fileID: 21300100, guid: e76bf59a5c4724c4284e48450149e7b4, type: 3}
  m_AnimationClipSettings:
    serializedVersion: 2
    m_AdditiveReferencePoseClip: {fileID: 0}
    m_AdditiveReferencePoseTime: 0
    m_StartTime: 0
    m_StopTime: 4.25
    m_OrientationOffsetY: 0
    m_Level: 0
    m_CycleOffset: 0
    m_HasAdditiveReferencePose: 0
    m_LoopTime: 0
    m_LoopBlend: 0
    m_LoopBlendOrientation: 0
    m_LoopBlendPositionY: 0
    m_LoopBlendPositionXZ: 0
    m_KeepOriginalOrientation: 0
    m_KeepOriginalPositionY: 1
    m_KeepOriginalPositionXZ: 0
    m_HeightFromFeet: 0
    m_Mirror: 0
  m_EditorCurves:
  - curve:
      serializedVersion: 2
      m_Curve:
      - serializedVersion: 3
        time: 0
        value: -0.5
        inSlope: 0
        outSlope: 0
        tangentMode: 136
        weightedMode: 0
        inWeight: 0
        outWeight: 0
      - serializedVersion: 3
        time: 1.4166666
        value: -0.5
        inSlope: 0
        outSlope: 0
        tangentMode: 136
        weightedMode: 0
        inWeight: 0.33333334
        outWeight: 0.33333334
      - serializedVersion: 3
        time: 4.1666665
        value: -1.5
        inSlope: 0
        outSlope: 0
        tangentMode: 136
        weightedMode: 0
        inWeight: 0.33333334
        outWeight: 0.33333334
      m_PreInfinity: 2
      m_PostInfinity: 2
      m_RotationOrder: 4
    attribute: m_Offset.x
    path: 
    classID: 60
    script: {fileID: 0}
  - curve:
      serializedVersion: 2
      m_Curve:
      - serializedVersion: 3
        time: 0
        value: -0.5
        inSlope: 0
        outSlope: 0
        tangentMode: 136
        weightedMode: 0
        inWeight: 0
        outWeight: 0
      - serializedVersion: 3
        time: 1.4166666
        value: -0.5
        inSlope: 0
        outSlope: 0
        tangentMode: 136
        weightedMode: 0
        inWeight: 0.33333334
        outWeight: 0.33333334
      - serializedVersion: 3
        time: 4.1666665
        value: -1.25
        inSlope: 0
        outSlope: 0
        tangentMode: 136
        weightedMode: 0
        inWeight: 0.33333334
        outWeight: 0.33333334
      m_PreInfinity: 2
      m_PostInfinity: 2
      m_RotationOrder: 4
    attribute: m_Offset.x
    path: 
    classID: 61
    script: {fileID: 0}
  - curve:
      serializedVersion: 2
      m_Curve:
      - serializedVersion: 3
        time: 0
        value: 1
        inSlope: 0
        outSlope: 0
        tangentMode: 136
        weightedMode: 0
        inWeight: 0
        outWeight: 0
      - serializedVersion: 3
        time: 4.1666665
        value: 1.5
        inSlope: 0
        outSlope: 0
        tangentMode: 136
        weightedMode: 0
        inWeight: 0.33333334
        outWeight: 0.33333334
      m_PreInfinity: 2
      m_PostInfinity: 2
      m_RotationOrder: 4
    attribute: m_Size.x
    path: 
    classID: 61
    script: {fileID: 0}
  m_EulerEditorCurves: []
  m_HasGenericRootTransform: 0
  m_HasMotionFloatCurves: 0
  m_Events: []
